{
    "nameList": [{
        "number": "1",
        "alarmId": "ACCESS_NEGATIVE_ALARM_NOT_REACHED",
        "log": "Access Neg. NOT reached ",
        "name": "Pressure test error"
    }, {
        "number": "2",
        "alarmId": "ACCESS_PRESSURE_DECAY_FAILURE",
        "log": "Access decay failure ",
        "name": "Pressure test error"
    }, {
        "number": "3",
        "alarmId": "AC_CLOSURE_FAILED_ALERT",
        "log": "AC Closure Failed Alert",
        "name": "AC disconnect error"
    }, {
        "number": "4",
        "alarmId": "AC_CLOSURE_FAILED_ALARM",
        "log": "AC Closure Failed Alarm (RAS disabled)",
        "name": "AC disconnect failure"
    }, {
        "number": "5",
        "alarmId": "AC_DETECTED_PRIOR_TO_AC_PRIME_FAILURE",
        "log": "AC prior to AC Prime Failure",
        "name": "Fluid at AC sensor failure"
    }, {
        "number": "6",
        "alarmId": "AC_DETECTION_ALARM",
        "log": "AC not detected at detector too much",
        "name": "Fluid not detected at AC sensor"
    }, {
        "number": "7",
        "alarmId": "AC_LEVEL_ALARM",
        "log": "NO AC seen at fluid detector ",
        "name": "Air detected at AC sensor"
    }, {
        "number": "8",
        "alarmId": "AC_NOT_REMOVED_ALERT",
        "log": "AC seen at fluid detector during closure test",
        "name": "Fluid detected at AC sensor"
    }, {
        "number": "9",
        "alarmId": "AC_OCCLUSION_DETECTED",
        "log": "Possible AC Occlusion check AC bag and line ",
        "name": "AC line obstruction error"
    }, {
        "number": "10",
        "alarmId": "AC_PRIME_INLET_ALARM",
        "log": "AC Occlusion during inlet prime",
        "name": "AC line obstruction failure"
    }, {
        "number": "11",
        "alarmId": "APS_AUTO_ZERO_FAILED_RANGE",
        "log": "APS auto-zero excessive variation in readings ",
        "name": "Access pressure sensor failure"
    }, {
        "number": "12",
        "alarmId": "APS_AUTO_ZERO_FAILED_MAX",
        "log": "APS auto-zero above maximum allowed ",
        "name": "Access pressure sensor failure"
    }, {
        "number": "13",
        "alarmId": "APS_AUTO_ZERO_FAILED_MIN",
        "log": "APS auto-zero below minimum allowed ",
        "name": "Access pressure sensor failure"
    }, {
        "number": "14",
        "alarmId": "APS_DECOUPLING",
        "log": "APS Sensor decoupled",
        "name": "Pressure sensor failure"
    }, {
        "number": "15",
        "alarmId": "APS_DECOUPLING_PAUSE",
        "log": "APS sensor decoupled pause",
        "name": "Operator attention"
    }, {
        "number": "16",
        "alarmId": "APS_DURING_PAUSE_HI",
        "log": "Access pressure alarm occurred in pause condition (high) ",
        "name": "Return pressure too high"
    }, {
        "number": "17",
        "alarmId": "APS_PAUSE",
        "log": "Automatic APS pause ",
        "name": "Operator attention"
    }, {
        "number": "18",
        "alarmId": "APS_PUMPS_SLOW",
        "log": "Automatic APS slowing of the pumps ",
        "name": "Draw pressure too low"
    }, {
        "number": "19",
        "alarmId": "APS_TOO_HIGH_ALERT",
        "log": "Access/Return Pressure TOO High",
        "name": "Return pressure too high"
    }, {
        "number": "21",
        "alarmId": "APS_TOO_HIGH_ALERT_MSS",
        "log": "Access Pressure TOO High During Metered Storage",
        "name": "RBC filter pressure high"
    }, {
        "number": "22",
        "alarmId": "APS_TOO_HIGH_ALARM_MSS",
        "log": "Access/Return Pressure TOO High during MSS addition ",
        "name": "RBC filter pressure high"
    }, {
        "number": "23",
        "alarmId": "APS_HIGH_MSS_P1_OK_ALERT",
        "log": "Access Pressure TOO High During Metered Storage (product 1 Still Ok)",
        "name": "RBC filter pressure high"
    }, {
        "number": "24",
        "alarmId": "APS_TOO_HIGH_PTF_ALERT",
        "log": "Access/Return Pressure TOO High during MSS addition ",
        "name": "RBC filter pressure high"
    }, {
        "number": "25",
        "alarmId": "APS_TOO_LOW",
        "log": "Access Pressure TOO Low ",
        "name": "Draw pressure too low"
    }, {
        "number": "26",
        "alarmId": "BARCODE_INFO_ALARM",
        "log": "Information alarm to raise the barcode mgmt. screen ",
        "name": "Operator attention"
    }, {
        "number": "27",
        "alarmId": "CASSETTE_FAILURE",
        "log": "Cassette Failure ",
        "name": "Cassette error"
    }, {
        "number": "28",
        "alarmId": "CASSETTE_INVALID_ALARM",
        "log": "Cassette type not valid for procedure selected ",
        "name": "Tubing set type error"
    }, {
        "number": "29",
        "alarmId": "CASSETTE_REF_MISMATCH_ALARM",
        "log": "Cassette type detected does not match chosen REF number ",
        "name": "Tubing set type error"
    }, {
        "number": "30",
        "alarmId": "CASSETTE_UNRECOGNIZED_ALARM",
        "log": "Cassette stamp color not recognized ",
        "name": "Tubing set type error"
    }, {
        "number": "31",
        "alarmId": "CENTRIFUGE_HARDWARE_FAILURE",
        "log": "Cent. hardware Failure ",
        "name": "Centrifuge failure"
    }, {
        "number": "32",
        "alarmId": "CENTRIFUGE_INTEGRAL_FAILURE",
        "log": "Cent. integration Failure ",
        "name": "Hardware failure"
    }, {
        "number": "33",
        "alarmId": "CENTRIFUGE_SHUTDOWN_FAILURE",
        "log": "Cent. shutdown Failure",
        "name": "Centrifuge failure"
    }, {
        "number": "34",
        "alarmId": "CFR11_TRACKING_ALARM",
        "log": "Audit Tracking Alarm to raise selection mgmt. screen ",
        "name": "Operator attention"
    }, {
        "number": "35",
        "alarmId": "CHANNEL_CLAMP_NOT_CLOSED_ALERT",
        "log": "Channel Clamp not closed ",
        "name": "Channel line clamp error"
    }, {
        "number": "36",
        "alarmId": "CHANNEL_CLAMP_NOT_CLOSED_ADDITION_ALERT",
        "log": "Channel Clamp not closed during addition ",
        "name": "Channel line clamp error"
    }, {
        "number": "37",
        "alarmId": "CHANNEL_VOLUME_REMAINING_HIGH",
        "log": "Channel Volume Remaining High",
        "name": "Channel volume too high"
    }, {
        "number": "38",
        "alarmId": "COLLECT_VALVE_FAILURE",
        "log": "Collect valve Failure ",
        "name": "Valve error"
    }, {
        "number": "39",
        "alarmId": "CONCENTRATION_OUT_OF_TOLERANCE",
        "log": "Concentration outside tolerance ",
        "name": "Platelet concentration out of range"
    }, {
        "number": "40",
        "alarmId": "CPS_HIGH_DURING_RBC_COLLECT_ALARM",
        "log": "Centrifuge Pressure Sensor detects possible clogged RBC filter",
        "name": "System pressure high"
    }, {
        "number": "41",
        "alarmId": "CPS_HIGH_DURING_RBC_COLLECT_ALERT",
        "log": "Centrifuge Pressure Sensor detects possible clogged RBC filter during collect ",
        "name": "System pressure high"
    }, {
        "number": "42",
        "alarmId": "CPS_HIGH_DURING_RBC_COLLECT_PROD2_OK_ALERT",
        "log": "Centrifuge Pressure Sensor detects possible clogged RBC filter during product 1 collect ",
        "name": "System pressure high"
    }, {
        "number": "43",
        "alarmId": "CPS_PTF_BASELINE_TEST_ALERT",
        "log": "Centrifuge Pressure Sensor failed baseline test",
        "name": "System pressure high"
    }, {
        "number": "44",
        "alarmId": "CPS_PTF_BASELINE_TEST_ALARM",
        "log": "Centrifuge Pressure Sensor repeatedly failed baseline test",
        "name": "System pressure high"
    }, {
        "number": "45",
        "alarmId": "CPS_PTF_PRIME_TEST",
        "log": "Centrifuge Pressure Sensor not responding as expected during PTF prime ",
        "name": "Centrifuge pressure error"
    }, {
        "number": "46",
        "alarmId": "CPS_TOO_HIGH_ALARM",
        "log": "CPS Too High Alarm during MSS ",
        "name": "System pressure high"
    }, {
        "number": "47",
        "alarmId": "CPS_TOO_HIGH_ALERT_NO_CLAMP",
        "log": "Centrifuge pressure TOO High Alert (no AAS kit version) ",
        "name": "Centrifuge pressure high"
    }, {
        "number": "48",
        "alarmId": "CPS_TOO_HIGH_ALERT_ONE_CLAMP",
        "log": "Centrifuge pressure TOO High Alert (RAS-only kit version) ",
        "name": "System pressure high"
    }, {
        "number": "49",
        "alarmId": "CPS_TOO_HIGH_ALERT_THREE_CLAMP",
        "log": "Centrifuge pressure TOO High Alert (PAS kit version) ",
        "name": "Centrifuge pressure high"
    }, {
        "number": "50",
        "alarmId": "CPS_OUT_OF_RANGE_AT_SET_LOWER",
        "log": "CPS out of range at set lower ",
        "name": "Centrifuge pressure out of range"
    }, {
        "number": "52",
        "alarmId": "DISCONNECT_TEST_ALARM",
        "log": "Disconnect donor - UNLOADING PUMPS!!! ",
        "name": "Donor disconnect error"
    }, {
        "number": "53",
        "alarmId": "DISCONNECT_TEST_ALERT",
        "log": "Disconnect alert ",
        "name": "Donor disconnect error"
    }, {
        "number": "54",
        "alarmId": "DISCONNECT_TEST_MSS_ALERT",
        "log": "Disconnect alert  (Automated Solutions Pending) ",
        "name": "Donor disconnect error"
    }, {
        "number": "55",
        "alarmId": "DISCONNECT_TEST_MSS_ALARM",
        "log": "Disconnect donor  (Automated Solutions Pending) - Disconnect could not be confirmed!",
        "name": "Donor disconnect error"
    }, {
        "number": "56",
        "alarmId": "DOOR_LATCH_FAILURE",
        "log": "Door latch Failure ",
        "name": "Centrifuge door unlatched"
    }, {
        "number": "57",
        "alarmId": "DOOR_LOCK_ALARM",
        "log": "Door NOT Locked / Centrifuge can not run ",
        "name": "Centrifuge door unlatched"
    }, {
        "number": "58",
        "alarmId": "DOOR_OPEN_ALARM",
        "log": "Door Open / Centrifuge can not run ",
        "name": "Centrifuge door open"
    }, {
        "number": "59",
        "alarmId": "DRBC_SPLIT_ALERT",
        "log": "DRBC Split alert ",
        "name": "Operator attention"
    }, {
        "number": "60",
        "alarmId": "EVACUATION_PRESSURE_ALERT",
        "log": "Pressure detected during bag evacuation ",
        "name": "Pressure test error"
    }, {
        "number": "61",
        "alarmId": "EVACUATION_PRESSURE_ALERT_FINAL",
        "log": "Pressure detected during bag evacuation Ending Run ",
        "name": "Air removal failure"
    }, {
        "number": "62",
        "alarmId": "FAILURE_TO_CLOSE_CROSSOVER",
        "log": "Failure to Close the crossover clamp ",
        "name": "Crossover line error"
    }, {
        "number": "63",
        "alarmId": "FAILURE_TO_PRESSURIZE_INLET",
        "log": "Failure to pressurize inlet ",
        "name": "Pressure test error"
    }, {
        "number": "64",
        "alarmId": "FAILURE_TO_PRESSURIZE_INLET_NON_RAS_SET",
        "log": "Failure to pressurize inlet (non-RAS set) ",
        "name": "Pressure test error"
    }, {
        "number": "65",
        "alarmId": "FAILURE_TO_PRESSURIZE_INLET_RAS_SET",
        "log": "Failure to pressurize inlet (RAS set) ",
        "name": "Pressure test error"
    }, {
        "number": "66",
        "alarmId": "FAILURE_TO_RELIEVE_PRESSURE",
        "log": "Failure to Relieve access pressure ",
        "name": "Pressure relief error"
    }, {
        "number": "67",
        "alarmId": "FIRST_CYCLE_TOO_LATE_ALARM",
        "log": "First cycle seen too late ",
        "name": "First cycle error"
    }, {
        "number": "68",
        "alarmId": "FIRST_CYCLE_TOO_SOON_ALARM",
        "log": "First cycle seen too soon",
        "name": "First cycle failure"
    }, {
        "number": "69",
        "alarmId": "HIGH_CENTRIFUGE_COMMAND",
        "log": "Centrifuge command too HIGH ",
        "name": "Centrifuge speed error"
    }, {
        "number": "70",
        "alarmId": "HYPOVOLEMIA_ALARM",
        "log": "HYPOVOLEMIA detected; STOP Procedure....",
        "name": "System test failure"
    }, {
        "number": "71",
        "alarmId": "INLET_VOLM_ALARM",
        "log": "Inlet volume too high ; STOP Procedure....",
        "name": "Channel volume too high"
    }, {
        "number": "72",
        "alarmId": "LEAK_DETECTED_ALERT",
        "log": "Leak detected Alert",
        "name": "Leak detected"
    }, {
        "number": "73",
        "alarmId": "LEAK_DETECTOR_ERROR_FAILURE",
        "log": "Leak detector ERROR Failure ",
        "name": "Leak detector error"
    }, {
        "number": "74",
        "alarmId": "LEAK_TEST_FAILURE",
        "log": "Leak test Failure ",
        "name": "Leak test error"
    }, {
        "number": "75",
        "alarmId": "LOW_LEVEL_DETECTED_PRIOR_TO_EXPECTED",
        "log": "Low level before BLOOD Prime Return",
        "name": "Fluid detected before prime failure"
    }, {
        "number": "76",
        "alarmId": "LOW_LEVEL_SENSOR_SEEN_TOO_LATE_FAILURE",
        "log": "Low level too late",
        "name": "Low-level sensor failure"
    }, {
        "number": "77",
        "alarmId": "LOW_LEVEL_SENSOR_SEEN_TOO_SOON_FAILURE",
        "log": "Low level too soon",
        "name": "Fluid detected too soon"
    }, {
        "number": "78",
        "alarmId": "LOW_PLATELET_CONCENTRATION_ALERT",
        "log": "Low platelet concentration detected",
        "name": "Low platelet concentration detected"
    }, {
        "number": "79",
        "alarmId": "MAINTAIN_DONOR_ACCESS_ALERT",
        "log": "Pumps Paused 3 Minutes ",
        "name": "Three minute pause"
    }, {
        "number": "80",
        "alarmId": "MSS_PRIME_DELAY_RBC_ALERT",
        "log": "Reservoir status change not seen for RAS prime ",
        "name": "RBC additive solution prime error"
    }, {
        "number": "81",
        "alarmId": "MSS_PRIME_TOO_SOON_RBC_ALARM",
        "log": "Fluid too soon during RAS prime ",
        "name": "RBC additive solution prime error"
    }, {
        "number": "82",
        "alarmId": "MSS_PRIME_TOO_SOON_PLT_ALERT",
        "log": "Fluid too soon during PAS prime",
        "name": "Platelet additive solution prime error"
    }, {
        "number": "83",
        "alarmId": "MSS_PRIME_DELAY_PLT_ALERT",
        "log": "Reservoir status change not seen for PAS prime ",
        "name": "Platelet additive solution prime error"
    }, {
        "number": "84",
        "alarmId": "MSS_PLT_SS_EMPTY",
        "log": "Prompt operator to replace PAS bag ",
        "name": "Operator attention"
    }, {
        "number": "86",
        "alarmId": "MSS_RBC_SS_EMPTY",
        "log": "Prompt operator to replace RAS bag ",
        "name": "Replace the RBC additive solution bag"
    }, {
        "number": "87",
        "alarmId": "MSS_DRBC_SS_EMPTY",
        "log": "Prompt operator to replace RAS bag (drbc set) ",
        "name": "Replace the RBC additive solution bag"
    }, {
        "number": "88",
        "alarmId": "minus12V_TOO_HIGH",
        "log": "-12V power too HIGH ",
        "name": "Voltage failure"
    }, {
        "number": "89",
        "alarmId": "minus12V_TOO_LOW",
        "log": "-12V power too LOW ",
        "name": "Voltage failure"
    }, {
        "number": "90",
        "alarmId": "MOTOR_FAILED_TO_MAINTAIN_SPEED",
        "log": "Motor Failed to Maintain Speed ",
        "name": "Motor hardware failure"
    }, {
        "number": "91",
        "alarmId": "ONE_MINUTE_PAUSE",
        "log": "Pumps Paused 1 Minute RPM reduced ",
        "name": "One minute pause"
    }, {
        "number": "92",
        "alarmId": "OVERTEMP_ALARM",
        "log": "Basin overtemperature detected ",
        "name": "Centrifuge temperature error"
    }, {
        "number": "93",
        "alarmId": "OVERTEMP_FAILURE",
        "log": "Basin overtemperature detected",
        "name": "Centrifuge temperature error"
    }, {
        "number": "94",
        "alarmId": "PAUSE_BEFORE_SPILLOVER",
        "log": "Pausing to allow spillover confirmation ",
        "name": "Operator attention"
    }, {
        "number": "95",
        "alarmId": "PAUSE_BUTTON_ALARM",
        "log": "PAUSE button pressed ",
        "name": "Pumps paused"
    }, {
        "number": "96",
        "alarmId": "PERSISTENT_SPILLOVER_ALARM",
        "log": "Run Ended due to Persistent spillovers",
        "name": "RBC spillover"
    }, {
        "number": "97",
        "alarmId": "plus64V_TOO_HIGH",
        "log": "64V power too HIGH ",
        "name": "Voltage failure"
    }, {
        "number": "98",
        "alarmId": "plus64V_TOO_LOW",
        "log": "64V power too LOW ",
        "name": "Voltage failure"
    }, {
        "number": "99",
        "alarmId": "plus24V_TOO_HIGH",
        "log": "24V power too HIGH ",
        "name": "Voltage failure"
    }, {
        "number": "100",
        "alarmId": "plus24V_TOO_LOW",
        "log": "24V power too LOW ",
        "name": "Voltage failure"
    }, {
        "number": "101",
        "alarmId": "plus12V_TOO_HIGH",
        "log": "12V power too HIGH ",
        "name": "Voltage failure"
    }, {
        "number": "102",
        "alarmId": "plus12V_TOO_LOW",
        "log": "12V power too LOW ",
        "name": "Voltage failure"
    }, {
        "number": "103",
        "alarmId": "PLASMA_VALVE_FAILURE",
        "log": "Plasma valve Failure ",
        "name": "Valve error"
    }, {
        "number": "104",
        "alarmId": "POWER_FAIL_CONTINUE",
        "log": "PFR detected with continue allowed ",
        "name": "Power interrupted"
    }, {
        "number": "105",
        "alarmId": "POWER_FAIL_RINSEBACK",
        "log": "PFR detected with rinseback allowed ",
        "name": "Power interrupted"
    }, {
        "number": "106",
        "alarmId": "POWER_FAIL_ABORT",
        "log": "PFR detected with recovery prohibited",
        "name": "Power interrupted"
    }, {
        "number": "107",
        "alarmId": "POWER_TEST_FAILURE",
        "log": "Power test Failure ",
        "name": "Power test failure"
    }, {
        "number": "108",
        "alarmId": "PREDICTION_PAUSE",
        "log": "Pumps paused while operator selects a procedure ",
        "name": "Operator attention"
    }, {
        "number": "109",
        "alarmId": "PRIME_FAILURE",
        "log": "Prime Failure",
        "name": "AC prime failure"
    }, {
        "number": "110",
        "alarmId": "PROCEDURE_MODIFIED",
        "log": "Procedure needs operator confirmation to continue ",
        "name": "Confirmation required"
    }, {
        "number": "111",
        "alarmId": "PUMP_RPM_COMMAND_FAILURE",
        "log": "Pump RPM command Failure ",
        "name": "Pump error"
    }, {
        "number": "112",
        "alarmId": "RBC_DETECTOR_CAL_FAILURE",
        "log": "RBC Detector Calibration Failure ",
        "name": "RBC detector error"
    }, {
        "number": "113",
        "alarmId": "RBC_VALVE_FAILURE",
        "log": "RBC valve Failure ",
        "name": "Valve error"
    }, {
        "number": "114",
        "alarmId": "REPLACEMENT_FLUID_ALARM",
        "log": "Prompt operator to connect replacement fluid ",
        "name": "Operator attention"
    }, {
        "number": "115",
        "alarmId": "REPLACEMENT_FLUID_BOLUS_ALARM",
        "log": "Prompt operator to connect replacement fluid for a bolus of fluid ",
        "name": "Operator attention"
    }, {
        "number": "116",
        "alarmId": "REPLACEMENT_FLUID_NEW_BAG_ALARM",
        "log": "Prompt operator to replace empty replacement fluid bag ",
        "name": "Operator attention"
    }, {
        "number": "117",
        "alarmId": "REPLACEMENT_FLUID_ALARM_RINSEBACK",
        "log": "Prompt operator to connect replacement fluid bag for saline rinseback ",
        "name": "Operator attention"
    }, {
        "number": "118",
        "alarmId": "RESERVOIR_ALARM",
        "log": "Reservoir Sensor Failure - Fluid high : Air low ",
        "name": "Level sensor error"
    }, {
        "number": "119",
        "alarmId": "RESERVOIR_CHECK_SILENT_ALARM",
        "log": "Silent ULS alarm to pause and check ULS signal on first cycle.",
        "name": "Operator attention"
    }, {
        "number": "120",
        "alarmId": "RESERVOIR_DRAW_TOO_LONG_ALARM_NO_CLAMP",
        "log": "Draw cycle took too long to fill the reservoir ",
        "name": "Level sensor error"
    }, {
        "number": "121",
        "alarmId": "RESERVOIR_DRAW_TOO_SHORT_ALARM_NO_CLAMP",
        "log": "Draw cycle was too short to fill the reservoir ",
        "name": "Level sensor error"
    }, {
        "number": "122",
        "alarmId": "RESERVOIR_RETURN_TOO_LONG_ALARM_NO_CLAMP",
        "log": "Return cycle took too long to empty the reservoir ",
        "name": "Level sensor error"
    }, {
        "number": "123",
        "alarmId": "RESERVOIR_RETURN_TOO_SHORT_ALARM_NO_CLAMP",
        "log": "Return cycle was too short to empty the reservoir ",
        "name": "Level sensor error"
    }, {
        "number": "124",
        "alarmId": "RESERVOIR_DRAW_TOO_LONG_ALARM_ONE_CLAMP",
        "log": "Draw cycle took too long to fill the reservoir ",
        "name": "Level sensor error"
    }, {
        "number": "125",
        "alarmId": "RESERVOIR_DRAW_TOO_SHORT_ALARM_ONE_CLAMP",
        "log": "Draw cycle was too short to fill the reservoir ",
        "name": "Level sensor error"
    }, {
        "number": "126",
        "alarmId": "RESERVOIR_RETURN_TOO_LONG_ALARM_ONE_CLAMP",
        "log": "Return cycle took too long to empty the reservoir ",
        "name": "Level sensor error"
    }, {
        "number": "127",
        "alarmId": "RESERVOIR_RETURN_TOO_SHORT_ALARM_ONE_CLAMP",
        "log": "Return cycle was too short to empty the reservoir ",
        "name": "Level sensor error"
    }, {
        "number": "128",
        "alarmId": "RESERVOIR_DRAW_TOO_LONG_ALARM_THREE_CLAMP",
        "log": "Draw cycle took too long to fill the reservoir ",
        "name": "Level sensor error"
    }, {
        "number": "129",
        "alarmId": "RESERVOIR_DRAW_TOO_SHORT_ALARM_THREE_CLAMP",
        "log": "Draw cycle was too short to fill the reservoir ",
        "name": "Level sensor error"
    }, {
        "number": "130",
        "alarmId": "RESERVOIR_RETURN_TOO_LONG_ALARM_THREE_CLAMP",
        "log": "Return cycle took too long to empty the reservoir ",
        "name": "Level sensor error"
    }, {
        "number": "131",
        "alarmId": "RESERVOIR_RETURN_TOO_SHORT_ALARM_THREE_CLAMP",
        "log": "Return cycle was too short to empty the reservoir ",
        "name": "Level sensor error"
    }, {
        "number": "132",
        "alarmId": "RESERVOIR_DRAW_TOO_LONG_ALARM_RBC_PL_NO_CLAMP",
        "log": "Draw cycle too long - RBC/Plasma set ",
        "name": "Level sensor error"
    }, {
        "number": "133",
        "alarmId": "RESERVOIR_DRAW_TOO_LONG_ALARM_RBC_PL_ONE_CLAMP",
        "log": "Draw cycle too long - RBC/Plasma set ",
        "name": "Level sensor error"
    }, {
        "number": "134",
        "alarmId": "RESERVOIR_RETURN_TOO_LONG_ALARM_A1",
        "log": "Return cycle took too long to empty the reservoir - A1",
        "name": "System test failure"
    }, {
        "number": "135",
        "alarmId": "RETURN_LINE_OCCLUSION",
        "log": "Possible return line occlusion detected ",
        "name": "Return pressure too high"
    }, {
        "number": "136",
        "alarmId": "RETURN_LINE_OCCLUSION_A1",
        "log": "Possible return line occlusion detected - A1 ",
        "name": "System test failure"
    }, {
        "number": "137",
        "alarmId": "SAL_RINSEBACK_RETURN_TOO_HIGH",
        "log": "Upper level sensor during saline rinseback ",
        "name": "System test failure"
    }, {
        "number": "138",
        "alarmId": "SET_IDENTIFICATION_ALARM",
        "log": "Prompt operator to manually determine the set type ",
        "name": "Operator attention"
    }, {
        "number": "139",
        "alarmId": "SPILLOVER_DETECTED",
        "log": "Spillover Detected ",
        "name": "RBC spillover"
    }, {
        "number": "140",
        "alarmId": "STOP_BUTTON_ALARM",
        "log": "STOP button pressed ",
        "name": "Centrifuge stopped"
    }, {
        "number": "141",
        "alarmId": "TEN_MINUTE_PAUSE",
        "log": "Pumps Paused 10 Minutes ",
        "name": "Ten minute pause"
    }, {
        "number": "142",
        "alarmId": "TEN_MINUTE_PAUSE_ALARM",
        "log": "Paused 10 Minutes without access maintained",
        "name": "Ten minute pause"
    }, {
        "number": "143",
        "alarmId": "TOO_MANY_RESERVOIR_DRAW_ALARMS",
        "log": "Too many consecutive reservoir draw alarms",
        "name": "Level sensor error"
    }, {
        "number": "144",
        "alarmId": "TOO_MANY_RESERVOIR_RETURN_ALARMS",
        "log": "Too many consecutive reservoir return alarms",
        "name": "Level sensor error"
    }, {
        "number": "145",
        "alarmId": "RESERVOIR_FULL_AFTER_RETURN",
        "log": "Reservoir full after return cycle",
        "name": "Level sensor error"
    }, {
        "number": "146",
        "alarmId": "UNLOADING_BAD_CASSETTE_POSITION",
        "log": "UNLOADING Bad Cassette Position ",
        "name": "Cassette unload error"
    }, {
        "number": "147",
        "alarmId": "VALVE_HARDWARE_FAILURE",
        "log": "Valve hardware Failure ",
        "name": "Valve error"
    }, {
        "number": "148",
        "alarmId": "VALVE_TEST_FAILURE",
        "log": "Valve test Failure ",
        "name": "Valve error"
    }, {
        "number": "149",
        "alarmId": "HEMOLYSIS_DETECTED_ALARM",
        "log": "Hemolysis detected ",
        "name": "Hemolysis detected"
    }, {
        "number": "150",
        "alarmId": "GENERIC_PLT_WBC_CONTAMINATION_ALERT",
        "log": "Inform operator about possible plt wbc contamination ",
        "name": "Potential WBC contamination detected"
    }, {
        "number": "151",
        "alarmId": "AC_CLOSURE_FAILED_CONTINUE_PAS_ALARM",
        "log": "AC Closure Failed Alarm (RAS disabled. PAS allowed to continue)",
        "name": "AC disconnect failure"
    }, {
        "number": "152",
        "alarmId": "GENERIC_PLT_WBC_CONTAMINATION_OBTRUSIVE_ALERT",
        "log": "Inform operator about possible plt wbc contamination and offer endrun ",
        "name": "Potential WBC contamination detected"
    }, {
        "number": "153",
        "alarmId": "CONTROL_PRE_WATCHDOG_PAUSE",
        "log": "Pre Watchdog pause",
        "name": "CONTROL PRE WATCHDOG PAUSE"
    }, {
        "number": "154",
        "alarmId": "EVACUATION_PRESSURE_ALERT_JP",
        "log": "Pressure detected during bag evacuation (japanese bmp) ",
        "name": "Pressure test error"
    }, {
        "number": "155",
        "alarmId": "APS_AUTO_ZERO_FILE_ERROR",
        "log": "APS file operation error ",
        "name": "System test failure"
    }, {
        "number": "156",
        "alarmId": "MOTOR_INTEGRATION_ERROR",
        "log": "Motor Integration error ",
        "name": "Motor hardware failure"
    }, {
        "number": "157",
        "alarmId": "MOTOR_VOLUME_ERROR",
        "log": "Motor Volume Error ",
        "name": "Motor hardware failure"
    }, {
        "number": "158",
        "alarmId": "MOTOR_DISABLED",
        "log": "Motor Disabled ",
        "name": "Motor hardware failure"
    }, {
        "number": "162",
        "alarmId": "FAILURE_TO_PRESSURIZE_INLET_FINAL",
        "log": "Pressure Test Failure Ending Run ",
        "name": "Pressure test error"
    }, {
        "number": "163",
        "alarmId": "AUTOFLOW_TIME_ALERT",
        "log": "Inform operator proc time increased 10 mins due to autoflow ",
        "name": "Donation time increase"
    }, {
        "number": "164",
        "alarmId": "APS_DURING_PAUSE_LOW",
        "log": "Access pressure alarm occurred in pause condition (low) ",
        "name": "Draw pressure too low"
    }, {
        "number": "165",
        "alarmId": "APS_TOO_HIGH_ALARM_MSS_WITH_PAS",
        "log": "Access/Return Pressure TOO High during MSS addition with PAS ",
        "name": "RBC filter pressure high"
    }, {
        "number": "166",
        "alarmId": "SILENT_PAUSE_FOR_RET_TOO_SHORT_CHECK",
        "log": "Pause for Return Too Short Check",
        "name": "Operator attention"
    }, {
        "number": "167",
        "alarmId": "MSS_MISCONNECTED_2ND_PAS_BAG",
        "log": "RBC monitor indicates 2nd PAS bag misconnected",
        "name": "Platelet additive solution prime error"
    }, {
        "number": "1001",
        "alarmId": "BARCODE_INITIALIZATION_ALARM",
        "log": "Unable to initialize barcode sentinel",
        "name": "System test failure"
    }, {
        "number": "1002",
        "alarmId": "BITMAP_LOAD_FAILURE",
        "log": "Unable to load bitmap",
        "name": "System test failure"
    }, {
        "number": "1003",
        "alarmId": "CAL_DAT_BAD_FILE",
        "log": "cal.dat file open error",
        "name": "System test failure"
    }, {
        "number": "1004",
        "alarmId": "CAL_DAT_NO_APS_CAL",
        "log": "cal.dat APS not calibrated",
        "name": "System test failure"
    }, {
        "number": "1005",
        "alarmId": "CAL_DAT_NO_CPS_CAL",
        "log": "cal.dat CPS not calibrated",
        "name": "System test failure"
    }, {
        "number": "1006",
        "alarmId": "CAL_DAT_NO_RBC_CAL",
        "log": "cal.dat RBC detector not calibrated",
        "name": "System test failure"
    }, {
        "number": "1007",
        "alarmId": "CAL_DAT_PARSE_ERROR",
        "log": "cal.dat file parsing error",
        "name": "System test failure"
    }, {
        "number": "1008",
        "alarmId": "CAL_DAT_VALUE_NOT_FOUND",
        "log": "cal.dat file value not found",
        "name": "System test failure"
    }, {
        "number": "1009",
        "alarmId": "CAL_DAT_VALUE_OUT_OF_RANGE",
        "log": "cal.dat file value out of range",
        "name": "System test failure"
    }, {
        "number": "1010",
        "alarmId": "CFR11_LOG_FILE_ERROR",
        "log": "CFR11 log file operation failed",
        "name": "System test failure"
    }, {
        "number": "1011",
        "alarmId": "CASSETTE_DAT_FILE_BAD_CRC",
        "log": "cassette.dat file CRC error",
        "name": "System test failure"
    }, {
        "number": "1012",
        "alarmId": "CASSETTE_DAT_FILE_INVALID_ENTRY",
        "log": "Invalid entry in file cassette.dat",
        "name": "System test failure"
    }, {
        "number": "1013",
        "alarmId": "CASSETTE_DAT_FILE_OPEN_ERROR",
        "log": "Failed to open file cassette.dat",
        "name": "System test failure"
    }, {
        "number": "1014",
        "alarmId": "CASSETTE_DAT_FILE_PARSE_ERROR",
        "log": "Parse error encountered in file cassette.dat",
        "name": "System test failure"
    }, {
        "number": "1015",
        "alarmId": "COBE_CONFIG_BAD_FILE",
        "log": "Cobe configuration file open error",
        "name": "System test failure"
    }, {
        "number": "1016",
        "alarmId": "COBE_CONFIG_VALUE_NOT_FOUND",
        "log": "Cobe configuration file value not found",
        "name": "System test failure"
    }, {
        "number": "1017",
        "alarmId": "COBE_CONFIG_VALUE_OUT_OF_RANGE",
        "log": "Cobe configuration file value out of range",
        "name": "System test failure"
    }, {
        "number": "1018",
        "alarmId": "COBE_CONFIG_PARSE_ERROR",
        "log": "Cobe configuration file parsing error",
        "name": "System test failure"
    }, {
        "number": "1019",
        "alarmId": "CONFIGDAT_BAD_FILE",
        "log": "Config.dat file error",
        "name": "System test failure"
    }, {
        "number": "1020",
        "alarmId": "CONFIGDAT_VALUE_NOT_FOUND",
        "log": "Config.dat value not found",
        "name": "System test failure"
    }, {
        "number": "1021",
        "alarmId": "CONFIGDAT_VALUE_OUT_OF_RANGE",
        "log": "Config.dat value out of range",
        "name": "System test failure"
    }, {
        "number": "1022",
        "alarmId": "CONFIGDAT_PARSE_ERROR",
        "log": "Config.dat parsing error",
        "name": "System test failure"
    }, {
        "number": "1023",
        "alarmId": "CONFIGDAT_WRITE_ERROR",
        "log": "Config.dat write error",
        "name": "System test failure"
    }, {
        "number": "1024",
        "alarmId": "CPUID_BAD_CONTROL_DATA_FILE",
        "log": "Error reading control CPU data file",
        "name": "System test failure"
    }, {
        "number": "1025",
        "alarmId": "CPUID_BAD_SAFETY_DATA_FILE",
        "log": "Error reading safety CPU data file",
        "name": "System test failure"
    }, {
        "number": "1026",
        "alarmId": "CPUID_NO_CONTROL_DATA_FILE",
        "log": "Unable to open control CPU data file",
        "name": "System test failure"
    }, {
        "number": "1027",
        "alarmId": "CPUID_NO_SAFETY_DATA_FILE",
        "log": "Unable to open safety CPU data file",
        "name": "System test failure"
    }, {
        "number": "1028",
        "alarmId": "CPUID_CONTROL_HW_INVALID",
        "log": "Control CPU is not on the list of validated hardware",
        "name": "System test failure"
    }, {
        "number": "1029",
        "alarmId": "CPUID_SAFETY_HW_INVALID",
        "log": "Safety CPU is not on the list of validated hardware",
        "name": "System test failure"
    }, {
        "number": "1030",
        "alarmId": "FLOW_CALCULATION_ERROR",
        "log": "Flow calculation error",
        "name": "System test failure"
    }, {
        "number": "1031",
        "alarmId": "GUI_UNEXPECTED_CHOICE",
        "log": "GUI unexpected choice",
        "name": "System test failure"
    }, {
        "number": "1032",
        "alarmId": "GUI_VERIFPRD_NO_EXTENDED_TEXT",
        "log": "GUI verify product screen invoked with no verification reasons",
        "name": "System test failure"
    }, {
        "number": "1033",
        "alarmId": "HARDWARE_FAULT",
        "log": "Proc cannot control the hardware",
        "name": "System test failure"
    }, {
        "number": "1034",
        "alarmId": "HW_DAT_BAD_FILE",
        "log": "hw.dat file open error",
        "name": "System test failure"
    }, {
        "number": "1035",
        "alarmId": "HW_DAT_VALUE_NOT_FOUND",
        "log": "hw.dat file value not found",
        "name": "System test failure"
    }, {
        "number": "1036",
        "alarmId": "HW_DAT_VALUE_OUT_OF_RANGE",
        "log": "hw.dat file value out of range",
        "name": "System test failure"
    }, {
        "number": "1037",
        "alarmId": "HW_DAT_PARSE_ERROR",
        "log": "hw.dat file parsing error",
        "name": "System test failure"
    }, {
        "number": "1038",
        "alarmId": "HYPOVOLEMIA_NOT_INITIALIZED",
        "log": "Hypovolemia object used before being initialized",
        "name": "System test failure"
    }, {
        "number": "1039",
        "alarmId": "INTERNAL_ATOD_ERROR",
        "log": "Internal A/D error detected",
        "name": "System test failure"
    }, {
        "number": "1040",
        "alarmId": "INTERNAL_TIMING_ERROR",
        "log": "Internal timing error detected",
        "name": "System test failure"
    }, {
        "number": "1041",
        "alarmId": "INVALID_ALARM_FAULT",
        "log": "Alarm handler fault",
        "name": "System test failure"
    }, {
        "number": "1042",
        "alarmId": "MEMORY_TEST_OSINFO_FAILURE",
        "log": "Memory test OS information retrieval error",
        "name": "System test failure"
    }, {
        "number": "1043",
        "alarmId": "MEMORY_TEST_SAFETY_MEMORY_INSUFFICIENT",
        "log": "Memory test safety memory insufficient",
        "name": "System test failure"
    }, {
        "number": "1045",
        "alarmId": "PREDICT_BAD_TARGET_SUBSTATE",
        "log": "Predict processed invalid target substate",
        "name": "System test failure"
    }, {
        "number": "1046",
        "alarmId": "PREDICT_INVALID_GUI_REQUEST",
        "log": "Predict received invalid GUI request",
        "name": "System test failure"
    }, {
        "number": "1047",
        "alarmId": "PREDICT_INVALID_MODIFY_REQUEST",
        "log": "Predict detected invalid product modification request",
        "name": "System test failure"
    }, {
        "number": "1048",
        "alarmId": "PREDICT_NO_SELECTED_PROCEDURE",
        "log": "Predict detected system running with no selected procedure",
        "name": "System test failure"
    }, {
        "number": "1049",
        "alarmId": "PREDICT_NOT_RESPONDING",
        "log": "Predict is not responding to Proc",
        "name": "System test failure"
    }, {
        "number": "1050",
        "alarmId": "PROC_STATES_FILE_NOT_FOUND",
        "log": "Proc states file not found",
        "name": "System test failure"
    }, {
        "number": "1051",
        "alarmId": "PROC_STATES_FILE_READ_ERROR",
        "log": "Proc states file read error",
        "name": "System test failure"
    }, {
        "number": "1052",
        "alarmId": "PROC_STATES_INIT_ERROR",
        "log": "Proc states file initialization error",
        "name": "System test failure"
    }, {
        "number": "1053",
        "alarmId": "PROC_STATES_PROCESSING_ERROR",
        "log": "Proc state manager processing error",
        "name": "System test failure"
    }, {
        "number": "1054",
        "alarmId": "RANDOM_FILE_STORAGE_ERROR",
        "log": "Error managing random file storage",
        "name": "System test failure"
    }, {
        "number": "1055",
        "alarmId": "RBC_DAT_BAD_FILE",
        "log": "rbc.dat file open error",
        "name": "System test failure"
    }, {
        "number": "1056",
        "alarmId": "RBC_DAT_VALUE_NOT_FOUND",
        "log": "rbc.dat file value not found",
        "name": "System test failure"
    }, {
        "number": "1057",
        "alarmId": "RBC_DAT_VALUE_OUT_OF_RANGE",
        "log": "rbc.dat file value out of range",
        "name": "System test failure"
    }, {
        "number": "1058",
        "alarmId": "RBC_DAT_PARSE_ERROR",
        "log": "rbc.dat file parsing error",
        "name": "System test failure"
    }, {
        "number": "1059",
        "alarmId": "RET_OCC_MONITOR_FAILURE",
        "log": "retoccmonitor task failure",
        "name": "System test failure"
    }, {
        "number": "1060",
        "alarmId": "SAFETY_NOT_RESPONDING",
        "log": "Safety not responding to starting protocol",
        "name": "Startup failure"
    }, {
        "number": "1061",
        "alarmId": "SAFETY_STATUS_INACTIVE",
        "log": "Safety status not seen within time limit",
        "name": "System test failure"
    }, {
        "number": "1062",
        "alarmId": "SETCONFIG_DAT_FILE_BAD_CRC",
        "log": "setconfig.dat file CRC error",
        "name": "System test failure"
    }, {
        "number": "1063",
        "alarmId": "SETCONFIG_DAT_FILE_INVALID_ENTRY",
        "log": "Invalid entry in file setconfig.dat",
        "name": "System test failure"
    }, {
        "number": "1064",
        "alarmId": "SETCONFIG_DAT_FILE_OPEN_ERROR",
        "log": "Failed to open file setconfig.dat",
        "name": "System test failure"
    }, {
        "number": "1065",
        "alarmId": "SETCONFIG_DAT_FILE_PARSE_ERROR",
        "log": "Parse error encountered in file setconfig.dat",
        "name": "System test failure"
    }, {
        "number": "1066",
        "alarmId": "SOFTWARE_CRC_CHECK_FAILURE",
        "log": "CRC check of installed software failed",
        "name": "System test failure"
    }, {
        "number": "1067",
        "alarmId": "VIP_CANT_BIND_SOCKET",
        "log": "can't bind vista socket",
        "name": "System test failure"
    }, {
        "number": "1068",
        "alarmId": "VIP_CANT_LISTEN_ON_SOCKET",
        "log": "can't listen on vista socket",
        "name": "System test failure"
    }, {
        "number": "1069",
        "alarmId": "VTARGETCHECKER_DEFAULT",
        "log": "Target checker default case detected",
        "name": "System test failure"
    }, {
        "number": "1070",
        "alarmId": "SOUNDS_DAT_BAD_FILE",
        "log": "sounds.dat file open error",
        "name": "System test failure"
    }, {
        "number": "1071",
        "alarmId": "SOUNDS_DAT_VALUE_NOT_FOUND",
        "log": "sounds.dat file value not found",
        "name": "System test failure"
    }, {
        "number": "1072",
        "alarmId": "SOUNDS_DAT_VALUE_OUT_OF_RANGE",
        "log": "sounds.dat file value out of range",
        "name": "System test failure"
    }, {
        "number": "1073",
        "alarmId": "SOUNDS_DAT_PARSE_ERROR",
        "log": "sounds.dat file parsing error",
        "name": "System test failure"
    }, {
        "number": "1074",
        "alarmId": "SOUNDS_DAT_CRC_CHECK_FAILURE",
        "log": "sounds.dat CRC check failed",
        "name": "System test failure"
    }, {
        "number": "1075",
        "alarmId": "SW_CONFIG_VALUE_NOT_FOUND",
        "log": "SW configuration file value not found",
        "name": "System test failure"
    }, {
        "number": "1076",
        "alarmId": "STRING_INFO_FILE_ERROR",
        "log": "String info file error",
        "name": "System test failure"
    }, {
        "number": "1078",
        "alarmId": "CPS_TOO_HIGH_ALERT_THREE_CLAMP_PTF",
        "log": "Centrifuge pressure TOO High Alert (PAS + RAS kit version) ",
        "name": "System pressure high"
    }, {
        "number": "1079",
        "alarmId": "CONTROL_SOFT_WATCHDOG",
        "log": "Control Soft Watchdog",
        "name": "System test failure"
    }, {
        "number": "1081",
        "alarmId": "GUI_TRANSACTION_ERROR",
        "log": "GUI Transaction Manager Error",
        "name": "System test failure"
    }, {
        "number": "32769",
        "alarmId": "PWR_SWITCH_24V_FAILED",
        "log": "<Safety> T1 24V Switch FAILED",
        "name": "System test failure"
    }, {
        "number": "32770",
        "alarmId": "PWR_SWITCH_64V_FAILED",
        "log": "<Safety> T1 64V Switch FAILED",
        "name": "System test failure"
    }, {
        "number": "32771",
        "alarmId": "PWR_SWITCH_BOTH_FAILED",
        "log": "<Safety> T1 24V AND 64V Switch FAILED",
        "name": "System test failure"
    }, {
        "number": "32772",
        "alarmId": "DONOR_SEX_INVALID",
        "log": "<Safety> TBV Processing FAILED - Donor Sex INVALID ",
        "name": "System test failure"
    }, {
        "number": "32773",
        "alarmId": "TBV_UNITS_UNKNOWN",
        "log": "<Safety> TBV Processing FAILED - Ht/Wt Units UNKNOWN ",
        "name": "System test failure"
    }, {
        "number": "32774",
        "alarmId": "DONOR_WEIGHT_TOO_LOW",
        "log": "<Safety> TBV Processing FAILED - Donor Weight TOO LOW ",
        "name": "System test failure"
    }, {
        "number": "32775",
        "alarmId": "DONOR_WEIGHT_TOO_HIGH",
        "log": "<Safety> TBV Processing FAILED - Donor Weight TOO HIGH ",
        "name": "System test failure"
    }, {
        "number": "32776",
        "alarmId": "DONOR_HEIGHT_TOO_LOW",
        "log": "<Safety> TBV Processing FAILED - Donor Height TOO LOW ",
        "name": "System test failure"
    }, {
        "number": "32777",
        "alarmId": "DONOR_HEIGHT_TOO_HIGH",
        "log": "<Safety> TBV Processing FAILED - Donor Height TOO HIGH ",
        "name": "System test failure"
    }, {
        "number": "32778",
        "alarmId": "DONOR_TBV_TOO_HIGH",
        "log": "<Safety> TBV Processing FAILED - Donor TBV TOO HIGH ",
        "name": "System test failure"
    }, {
        "number": "32779",
        "alarmId": "DONOR_TBV_TOO_LOW",
        "log": "<Safety> TBV Processing FAILED - Donor TBV TOO LOW ",
        "name": "System test failure"
    }, {
        "number": "32780",
        "alarmId": "TBV_COMPARISON_FAILED",
        "log": "<Safety> TBV Processing FAILED - Safety and Procedure TBV Values Comparison Error",
        "name": "System test failure"
    }, {
        "number": "32781",
        "alarmId": "CENTRIFUGE_OVERSPEED",
        "log": "<Safety> Centrifuge OVERSPEED",
        "name": "Centrifuge speed failure"
    }, {
        "number": "32782",
        "alarmId": "CENTRIFUGE_ERROR",
        "log": "<Safety> Centrifuge ERROR",
        "name": "Centrifuge failure"
    }, {
        "number": "32783",
        "alarmId": "VALVE_LED_ERROR",
        "log": "<Safety> Valve LED ERROR",
        "name": "Valve sensor failure or door sensor failure"
    }, {
        "number": "32784",
        "alarmId": "RESERVOIR_FAILED_T0",
        "log": "<Safety> Low Reservoir Sensor FAILED - Not Air during Startup",
        "name": "System test failure"
    }, {
        "number": "32785",
        "alarmId": "STATE_TRANSITION_INVALID",
        "log": "<Safety> Detected INVALID State Transition",
        "name": "System test failure"
    }, {
        "number": "32786",
        "alarmId": "SW_FAULT",
        "log": "<Safety> Detected Software Fault",
        "name": "System test failure"
    }, {
        "number": "32787",
        "alarmId": "DONOR_AIR_ALARM",
        "log": "<Safety> Detected Donor Air FAULT",
        "name": "Low-level sensor failure"
    }, {
        "number": "32788",
        "alarmId": "INLET_PUMP_HALL_TOO_BIG",
        "log": "<Safety> Inlet Pump HALL exceeds Encoder FAULT",
        "name": "Draw pump failure"
    }, {
        "number": "32789",
        "alarmId": "INLET_PUMP_HALL_TOO_SMALL",
        "log": "<Safety> Inlet Pump Encoder exceeds Hall FAULT",
        "name": "Draw pump failure"
    }, {
        "number": "32790",
        "alarmId": "RETURN_PUMP_HALL_TOO_BIG",
        "log": "<Safety> Return Pump HALL exceeds Encoder FAULT",
        "name": "Return pump failure"
    }, {
        "number": "32791",
        "alarmId": "RETURN_PUMP_HALL_TOO_SMALL",
        "log": "<Safety> Return Pump Encoder exceeds Hall FAULT",
        "name": "Return pump failure"
    }, {
        "number": "32792",
        "alarmId": "AC_PUMP_HALL_TOO_BIG",
        "log": "<Safety> AC Pump HALL exceeds Encoder FAULT",
        "name": "AC pump failure"
    }, {
        "number": "32793",
        "alarmId": "AC_PUMP_HALL_TOO_SMALL",
        "log": "<Safety> AC Pump Encoder exceeds Hall FAULT",
        "name": "AC pump failure"
    }, {
        "number": "32794",
        "alarmId": "PLASMA_PUMP_HALL_TOO_BIG",
        "log": "<Safety> Plasma Pump HALL exceeds Encoder FAULT",
        "name": "Plasma pump failure"
    }, {
        "number": "32795",
        "alarmId": "PLASMA_PUMP_HALL_TOO_SMALL",
        "log": "<Safety> Plasma Pump Encoder exceeds Hall FAULT",
        "name": "Plasma pump failure"
    }, {
        "number": "32796",
        "alarmId": "PLATELET_PUMP_HALL_TOO_BIG",
        "log": "<Safety> Platelet Pump HALL exceeds Encoder FAULT",
        "name": "Platelet pump failure"
    }, {
        "number": "32797",
        "alarmId": "PLATELET_PUMP_HALL_TOO_SMALL",
        "log": "<Safety> Platelet Pump Encoder exceeds Hall FAULT",
        "name": "Platelet pump failure"
    }, {
        "number": "32798",
        "alarmId": "DONOR_HYPOVOLEMIA_ALARM",
        "log": "<Safety> Detected Donor Hypovolemia",
        "name": "System test failure"
    }, {
        "number": "32799",
        "alarmId": "AC_INFUSION_HIGH_ALARM",
        "log": "<Safety> Detected AC Infusion > 1.3 ml/min -l TBV",
        "name": "System test failure"
    }, {
        "number": "32800",
        "alarmId": "DRAW_CYCLE_TOO_BIG",
        "log": "<Safety> Detected Draw Cycle Too Big ",
        "name": "System test failure"
    }, {
        "number": "32802",
        "alarmId": "DOOR_NOT_LOCKED_CENTIFUGE_SPINNING",
        "log": "<Safety> Detected Door not LOCKED and CLOSED w/Centrifuge Spinning ",
        "name": "Centrifuge door unlatched"
    }, {
        "number": "32803",
        "alarmId": "INAPPROPRIATE_CASSETTE_MOVEMENT",
        "log": "<Safety> Inappropriate Cassette movement.",
        "name": "Cassette raising failure"
    }, {
        "number": "32804",
        "alarmId": "PRIME_TOO_SOON",
        "log": "<Safety> Detected Fluid at Low Level Sensor TOO SOON ",
        "name": "Prime failure"
    }, {
        "number": "32805",
        "alarmId": "PAUSE_SW_FAILED",
        "log": "<Safety> Control did NOT respond to PAUSE Key.",
        "name": "System test failure"
    }, {
        "number": "32806",
        "alarmId": "STOP_SW_FAILED",
        "log": "<Safety> Control did NOT respond to STOP Key.",
        "name": "System test failure"
    }, {
        "number": "32807",
        "alarmId": "AC_RATIO_TOO_LOW_ALARM",
        "log": "<Safety> AC Ratio too LOW",
        "name": "System test failure"
    }, {
        "number": "32808",
        "alarmId": "AC_RATIO_TOO_HIGH_ALARM",
        "log": "<Safety> AC Ratio TOO High.",
        "name": "System test failure"
    }, {
        "number": "32809",
        "alarmId": "AC_OFF_DURING_DRAW",
        "log": "<Safety> AC OFF During DRAW.",
        "name": "System test failure"
    }, {
        "number": "32810",
        "alarmId": "SAFETY_STATUS_COMM_ALARM",
        "log": "<Safety> Status Message Timeout",
        "name": "System test failure"
    }, {
        "number": "32811",
        "alarmId": "AC_ON_DURING_RETURN",
        "log": "<Safety> AC ON During Return",
        "name": "AC pump failure"
    }, {
        "number": "32812",
        "alarmId": "RBC_OUT_OF_POSITION",
        "log": "<Safety> RBC Valve Out Of Position",
        "name": "Valve error"
    }, {
        "number": "32813",
        "alarmId": "PLASMA_OUT_OF_POSITION",
        "log": "<Safety> Plasma Valve Out Of Position",
        "name": "Valve error"
    }, {
        "number": "32814",
        "alarmId": "PLATELET_OUT_OF_POSITION",
        "log": "<Safety> Platelet Valve Out Of Position",
        "name": "Valve error"
    }, {
        "number": "32815",
        "alarmId": "DONOR_HCT_RANGE_ERROR",
        "log": "<Safety> Donor Hct Range Error",
        "name": "System test failure"
    }, {
        "number": "32816",
        "alarmId": "DONOR_PRECOUNT_RANGE_ERROR",
        "log": "<Safety> Donor Precount Range Error",
        "name": "System test failure"
    }, {
        "number": "32817",
        "alarmId": "RBC_WB_PROCESSED_TOO_LARGE",
        "log": "<Safety> RBC Collect WB Processed Limit Exceeded",
        "name": "System test failure"
    }, {
        "number": "32818",
        "alarmId": "SAFETY_T1_FAILURE",
        "log": "<Safety> T1 Failure ",
        "name": "System test failure"
    }, {
        "number": "32819",
        "alarmId": "FIRST_DRAW_CYCLE_TOO_SMALL",
        "log": "<Safety> First Draw Cycle Too Small ",
        "name": "First cycle failure"
    }, {
        "number": "32820",
        "alarmId": "CASSETTE_NOT_DOWN",
        "log": "<Safety> Cassette not DOWN ",
        "name": "Cassette failure"
    }, {
        "number": "32821",
        "alarmId": "INAPPROPRIATE_AC_PUMP_MOVEMENT",
        "log": "<Safety> Inappropriate AC Pump Movement",
        "name": "AC pump movement failure"
    }, {
        "number": "32823",
        "alarmId": "RETURN_PUMP_SPEED_ALARM_RB",
        "log": "<Safety> Return Pump Speed > 250ml/min During RB",
        "name": "Return pump failure"
    }, {
        "number": "32824",
        "alarmId": "HYPERVOLEMIA_DETECTED",
        "log": "<Safety> Hypervolemia condition detected",
        "name": "System test failure"
    }]
}