﻿{"strings": {
    "cause": "考えられる原因",
    "action": "アクションステップ",
    "start": "機械の起動テスト",
    "not_conn": "患者は接続されていない",
    "conn": "患者は接続されている",
    "disconn": "患者は取り外されている",
    "instructions": "スクリーン上の指示",
    "information": "アラーム情報",
    "identification": "アラームID",
    "layer": "層",
    "system": "システム",
    "protocol": "プロトコル",
    "alarm_name": "アラーム名",
    "alarm_expl": "アラームの説明",
    "state": "System State",
        "message_number": "アラーム番号",
    "message_type": "メッセージタイプ",
    "version": "バージョン", 
    "occurs": "発生時期",
    "more_info1": "詳細 1",
    "more_info2": "詳細 2",
    "more_info3": "詳細 3",
    "more_info4": "詳細 4",
    "more_info5": "詳細 5",
    "more_info6": "詳細 6",
    "description": "アラームの説明",
    "response": "システムの対応",
    "causeaction": "考えられる原因/対処方法",
    "possible_cause": "考えられる原因",
    "operator_action": "対処方法"
}}
