﻿{"strings": {
    "cause": "可能原因",
    "action": "動作步驟",
    "start": "機器啟動測試",
    "not_conn": "病人沒有連著機器",
    "conn": "病人連著機器",
    "disconn": "病人與機器切斷連接",
    "instructions": "螢幕指示",
    "information": "警報資訊",
    "identification": "警報識別",
    "layer": "層級",
    "system": "系統",
    "protocol": "程序",
    "alarm_name": "警報名稱",
    "alarm_expl": "警報說明",
    "state": "System State (En placeholder)",
        "message_number": "Message number (En placeholder)",
    "message_type": "Message type (En placeholder)",
    "version": "Version (En placeholder)",  
    "occurs": "Occurs during (En placeholder)",
    "more_info1": "More information 1 (En placeholder)",
    "more_info2": "More information 2 (En placeholder)",
    "more_info3": "More information 3 (En placeholder)",
    "more_info4": "More information 4 (En placeholder)",
    "more_info5": "More information 5 (En placeholder)",
    "more_info6": "More information 6 (En placeholder)",
    "description": "Alarm Description (En placeholder)",
    "response": "System Response (En placeholder)",
    "causeaction": "Possible Cause/Operator Action (En placeholder)",
    "possible_cause": "Possible Cause (En placeholder)",
    "operator_action": "Operator Action (En placeholder)"
}}
