{"strings": {
    "cause": "Lehetséges ok",
    "action": "Teendők",
    "start": "Készülékindítási tesztek",
    "not_conn": "Páciens nincs csatlakoztatva",
    "conn": "Páciens csatlakoztatva",
    "disconn": "Páciens szétcsatlakoztatva",
    "instructions": "Képernyőutasítások",
    "information": "Riasztási információk",
    "identification": "Riasztás azonosítója",
    "layer": "Réteg",
    "system": "Rendszer",
    "protocol": "Protokoll",
    "alarm_name": "Riasztás neve",
    "alarm_expl": "Riasztás magyarázata",
    "state": "System State",
        "message_number": "Üzenetszám",
    "message_type": "Üzenettípus",
    "version": "Verzió",  
    "occurs": "Mikor fordul elő",
    "more_info1": "Bővebb információ 1",
    "more_info2": "Bővebb információ 2",
    "more_info3": "Bővebb információ 3",
    "more_info4": "Bővebb információ 4",
    "more_info5": "Bővebb információ 5",
    "more_info6": "Bővebb információ 6",
    "description": "Alarm Description",
    "response": "System Response",
    "causeaction": "Possible Cause/Operator Action",
    "possible_cause": "Possible Cause",
    "operator_action": "Operator Action"
}}
