{"strings": {
    "cause": "Mulig årsak",
    "action": "Handlingstrinn",
    "start": "Tester for maskinoppstart",
    "not_conn": "Pasient ikke tilkoblet",
    "conn": "Pasient tilkoblet",
    "disconn": "Pasient frakoblet",
    "instructions": "Skjerminstruksjoner",
    "information": "Alarminformasjon",
    "identification": "Alarmidentifikasjon",
    "layer": "Lag",
    "system": "System",
    "protocol": "Protokoll",
    "alarm_name": "Alarmnavn",
    "alarm_expl": "Alarmforklaring",
    "state": "Systemtilstand",
        "message_number": "Meldingsnummer",
    "message_type": "Meldingstype",
    "version": "Versjon",  
    "occurs": "Oppstår under",
    "more_info1": "Mer informasjon 1",
    "more_info2": "Mer informasjon 2",
    "more_info3": "Mer informasjon 3",
    "more_info4": "Mer informasjon 4",
    "more_info5": "Mer informasjon 5",
    "more_info6": "Mer informasjon 6",
                "description": "Alarm Description (En placeholder)",
    "response": "System Response (En placeholder)",
    "causeaction": "Possible Cause/Operator Action (En placeholder)",
    "possible_cause": "Possible Cause (En placeholder)",
    "operator_action": "Operator Action (En placeholder)"
}}
