{"strings": {
    "cause": "Možná příčina",
    "action": "Opatření",
    "start": "Testy při spouštění zařízení",
    "not_conn": "Pacient není připojen",
    "conn": "Pacient je připojen",
    "disconn": "Pacient je odpojen",
    "instructions": "Pokyny na obrazovce",
    "information": "Informace o alarmu",
    "identification": "Identifikace alarmu",
    "layer": "Vrstva",
    "system": "Systém",
    "protocol": "Protokol",
    "alarm_name": "Název alarmu",
    "alarm_expl": "Vysvětlení alarmu",
    "state": "Stav systému",
    "message_number": "Číslo hlášení",
    "version": "Verze",
    "message_type": "Typ hlášení",
    "occurs": "Okamžik výskytu",
    "more_info1": "Další informace 1",
    "more_info2": "Další informace 2",
    "more_info3": "Další informace 3",
    "more_info4": "Další informace 4",
    "more_info5": "Další informace 5",
    "more_info6": "Další informace 6",
    "description": "Popis varování",
    "response": "Reakce systému",
    "causeaction": "Možná příčina/Opatření obsluhy",
    "possible_cause": "Možná příčina",
    "operator_action": "Opatření obsluhy"
}}
