﻿{
    "troubleshooting": [{
        "alarmId": "Mirasol_101",
        "detection": [{
            "item": "Reported external air temperature is outside the range 0 °C \u003C=\u00A0Air Temp. \u003C=\u00A050 °C."
        }],
        "causeService": [{
            "item": "External air temperature exceeds the \u003C0 °C or >50 °C limits."
        }, {
            "item": "Defective External Air Temperature Sensor CCA."
        }],
        "actionService": [{
            "item": "Measure the external air temperature near the left side of the illuminator."
        }, {
            "item": "Use service software to view the Operational tab and compare the Ambient temperature with the external air temperature measurement."
        }]
    }, {
        "alarmId": "Mirasol_102",
        "detection": [{
            "item": "The last measured maximum lamp intensity from the upper or lower lamp chamber sensors was below 5.12 mW/cm² (80% of nominal 100hr brightness). This occurs at approximately 440 hours. "
        }, {
            "item": "The alarm code will change to a 502 when the output goes below 4.99 mW/cm² on either lamp bank. The lamps have approximately 20 to 25 hours of use until a 502 alarm occurs."
        }, {
            "item": "Factors such as ambient temperature, lamp starting temperature, lamp temperature control, dust, frequency of radiometer use, ballast, drive circuit, and ballast current all influence the actual life of the lamps."
        }, {
            "item": "Occurs 1 in every 10 runs."
        }],
        "causeService": [{
            "item": "Lamps are approaching the end of allowable life."
        }, {
            "item": "Excessively dirty reflectors, lamps, quartz windows, or sensor faces."
        }, {
            "item": "Initial setup of new Illuminator SBC software."
        }, {
            "item": "Change in calibration factors after a light calibration check."
        }],
        "actionService": [{
            "item": "Routine Maintenance: Replace all 12 lamps."
        }, {
            "item": "Clean reflectors, lamps, quartz windows, and sensor faces. After cleaning, perform light calibration check and a successful test run with a test plate."
        }, {
            "item": "After setup of new software, perform a light calibration check and a successful test run with a test plate."
        }, {
            "item": "Perform a light calibration check. Due to small differences in radiometers and calibrations the factors may change enough after one calibration to raise the intensity value above the alarm limit. If it does not clear the alarm it is not a failure. The lamps will need to be replaced."
        }]
    }, {
        "alarmId": "Mirasol_103",
        "detection": [{
            "item": "Illuminator has sent a message to the Mirasol Manager to check for a duplicate product ID and has not received a response for 10 seconds."
        }, {
            "item": "Message received from the Mirasol Manager has a bad checksum."
        }],
        "causeService": [{
            "item": "Mirasol Manager server or network connection is down."
        }, {
            "item": "Mirasol Manager is busy; could wait and try again."
        }, {
            "item": "Illuminator is configured for Mirasol Manager interface but is being used in stand-alone mode."
        }, {
            "item": "Faulty installation of Mirasol Manager."
        }]
    }, {
        "alarmId": "Mirasol_104",
        "detection": [{
            "item": "Illuminator compares the product ID with those in its internal, non-volatile log memory (of the last 500 runs) and finds a match."
        }, {
            "item": "Illuminator is configured to talk to Mirasol Manager, which indicates that this product ID has already been illuminated or has started the illumination procedure on another Illuminator (lamps on)."
        }],
        "causeService": [{
            "item": "Duplicate Barcode ID entered."
        }]
    }, {
        "alarmId": "Mirasol_105",
        "detection": [{
            "item": "This alarm is only active if the Illuminator is configured to talk to the Mirasol Manager. Alarm is raised because a significant time change occurred (>5 minutes). If date/time are incorrect on the Illuminator, all treatment records will be stored with incorrect date/time."
        }],
        "causeService": [{
            "item": "Change from Standard Time to Daylight Savings Time or vice-versa."
        }, {
            "item": "Illuminator newly connected or reconnected to Mirasol Manager."
        }, {
            "item": "Loss of clock time due to dead battery."
        }]
    }, {
        "alarmId": "Mirasol_106",
        "detection": [{
            "item": "The tare weights on the Illuminator and Mirasol Manager do not match."
        }]
    }, {
        "alarmId": "Mirasol_107",
        "detection": [{
            "item": "120 seconds have passed since the first character was entered on the Product ID screen, and the bag presence sensor/quartz clamp has not yet seen the bag."
        }, {
            "item": "Before run start, a bag was mounted on the platen and subsequently removed. 120 seconds have passed since bag removal."
        }],
        "causeService": [{
            "item": "Operator taking too long to start procedure."
        }, {
            "item": "Intermittent quartz clamp. Hourglass does not rotate or move."
        }]
    }, {
        "alarmId": "Mirasol_108",
        "detection": [{
            "item": "Product weight received from the MM is outside the permitted product weight range of the Illuminator."
        }],
        "causeService": [{
            "item": "Bad software installation; or incompatible versions of Illuminator and MM software."
        }]
    }, {
        "alarmId": "Mirasol_111",
        "detection": [{
            "item": "Reported temperature from either lamp temperature sensor is outside the range 0 °C \u003C=\u00A0lamp temp \u003C=\u00A0100 °C."
        }, {
            "item": "The lamps should be running around 47  °C to 50 °C set points."
        }],
        "causeService": [{
            "item": "Defective lamp temperature sensor."
        }, {
            "item": "Defective Lamp Chamber CCA."
        }, {
            "item": "Defective lamp cooling fan."
        }, {
            "item": "Extreme ambient temperature."
        }]
    }, {
        "alarmId": "Mirasol_112",
        "detection": [{
            "item": "Bag presence sensor/quartz clamp indicates no bag present."
        }],
        "causeService": [{
            "item": "Operator needs to close bag presence sensor/quartz clamp on inlet line."
        }, {
            "item": "Magnet moved or missing."
        }, {
            "item": "Defective bag presence sensor/quartz clamp."
        }, {
            "item": "Defective wiring between sensor and Platen CCA."
        }, {
            "item": "Defective flex circuit between platen and Drawer CCA."
        }, {
            "item": "Defective drawer CCA."
        }]
    }, {
        "alarmId": "Mirasol_113",
        "detection": [{
            "item": "Radiometer calibration due date is in the past."
        }, {
            "item": "Date is formatted incorrectly."
        }, {
            "item": "Barcode CRC check failed."
        }],
        "causeService": [{
            "item": "No dose measurement consequences. Failure is related to radiometer."
        }, {
            "item": "Radiometer is out of calibration."
        }, {
            "item": "Date is formatted incorrectly, for example it was entered as mm/dd/yy. The Illuminator interprets dates as yyyymmdd."
        }, {
            "item": "Faulty barcode scanner."
        }, {
            "item": "Damaged barcode (scratches, marks, smears, etc)."
        }],
        "actionService": [{
            "item": "Return radiometer for calibration. Follow your regional procedure."
        }, {
            "item": "Test barcode scanner."
        }, {
            "item": "Inspect barcode label for damage. If the label is damaged, return the radiometer. Follow your regional procedure."
        }]
    }, {
        "alarmId": "Mirasol_114",
        "detection": [{
            "item": "The Illuminator's serial number is set to '0' or is blank."
        }],
        "causeService": [{
            "item": "The illuminator's serial number is not set."
        }, {
            "item": "Incorrect illuminator software installation."
        }]
    }, {
        "alarmId": "Mirasol_115",
        "detection": [{
            "item": "The illuminator is using its on-board illumination index value AND it has been more than 90 days since the illumination index percentage screen was viewed for the selected set type AND ten or more product data cycles have been performed since this alarm was last displayed."
        }, {
            "item": "The illuminator is using its MM illumination index table AND it has been more than 90 days since the illumination index table was updated or viewed for the selected set type AND ten or more product data cycles have been performed since this alarm was last displayed."
        }],
        "causeService": [{
            "item": "It has been too long since the System Administrator has verified the illuminator Indices."
        }, {
            "item": "Newly installed software on the illuminator."
        }]
    }, {
        "alarmId": "Mirasol_116",
        "detection": [{
            "item": "Over 500 runs are stored on the compact flash storage card and none of the run files have been uploaded to the Mirasol Manager (MM) and the MM is configured and the MM connection is not functioning."
        }],
        "causeService": [{
            "item": "The illuminator has lost connection to the Mirasol Manager."
        }, {
            "item": "Other communication errors preventing the automatic re-synchronization of procedure records."
        }],
        "actionService": [{
            "item": "Check communication between the illuminator and Mirasol Manager."
        }, {
            "item": "Check that Mirasol Manager is turned on."
        }, {
            "item": "Reboot Mirasol Manager."
        }]
    }, {
        "alarmId": "Mirasol_117",
        "detection": [{
            "item": "The expiration date format or content is invalid."
        }, {
            "item": "The expiration date is in the past."
        }],
        "causeService": [{
            "item": "User scanned the wrong barcode, for example LOT instead of expiry date."
        }, {
            "item": "Disposable kit has expired."
        }],
        "actionService": [{
            "item": "Scan the proper barcode from the disposable kit."
        }, {
            "item": "Do not use the disposable kit if it has passed the printed expiration date."
        }]
    }, {
        "alarmId": "Mirasol_118",
        "detection": [{
            "item": "Scale reads -3.0% to -0.5% or 0.5% to 3.0% of the entered NET product weight when bag is loaded on the platen."
        }],
        "causeService": [{
            "item": "Scale not properly tared."
        }, {
            "item": "Air currents blowing on scale (make sure this is not caused by exhaust from the illuminator, shield the scale from air conditioning, etc.)"
        }, {
            "item": "Object contacting scale pan when it should be empty."
        }, {
            "item": "Defective Scale/Input."
        }],
        "actionService": [{
            "item": "Check the tare value on the scale."
        }, {
            "item": "Check for air vents or fans that could blow onto the scale."
        }, {
            "item": "Check for any items that could come into contact with the scale."
        }, {
            "item": "Refer to the scale manufacturer's service literature."
        }, {
            "item": "Contact a representative from the scale manufacturer."
        }]
    }, {
        "alarmId": "Mirasol_120",
        "detection": [{
            "item": "Scale reads OUTSIDE -3.0% to +3.0% of the entered NET product weight when bag is loaded on the platen."
        }],
        "causeService": [{
            "item": "Scale not properly tared."
        }, {
            "item": "Air currents blowing on scale (make sure this is not caused by exhaust from the illuminator, shield the scale from air conditioning, etc.)"
        }, {
            "item": "Object contacting scale pan when it should be empty."
        }, {
            "item": "Defective Scale/Input."
        }],
        "actionService": [{
            "item": "Check the tare value on the scale."
        }, {
            "item": "Check for air vents or fans that could blow onto the scale."
        }, {
            "item": "Check for any items that could come into contact with the scale."
        }, {
            "item": "Refer to the scale manufacturer's service literature."
        }, {
            "item": "Contact a representative from the scale manufacturer."
        }]
    }, {
        "alarmId": "Mirasol_201",
        "detection": [{
            "item": "Drawer opened after start of illumination or auto-calibration run."
        }],
        "causeService": [{
            "item": "Operator opened drawer (alarm will clear after closing)."
        }, {
            "item": "Maladjusted interlock switch."
        }, {
            "item": "Drawer not fully closed."
        }]
    }, {
        "alarmId": "Mirasol_202",
        "detection": [{
            "item": "Bag presence sensor/quartz clamp indicates no bag present."
        }],
        "causeService": [{
            "item": "Bag presence sensor/quartz clamp opened in the middle of a procedure, or operator opened it and failed to close it."
        }, {
            "item": "Bag presence sensor/quartz clamp magnet missing."
        }, {
            "item": "Defective bag presence sensor/quartz clamp."
        }]
    }, {
        "alarmId": "Mirasol_203",
        "detection": [{
            "item": "Either the upper or lower reported lamp temperature is >5°C above the upper control point."
        }],
        "causeService": [{
            "item": "Blocked airflow to the machine."
        }, {
            "item": "Blocked or dirty filters."
        }, {
            "item": "Defective lamp temperature sensor."
        }, {
            "item": "Defective Lamp Chamber CCA."
        }, {
            "item": "Failed lamp fans."
        }]
    }, {
        "alarmId": "Mirasol_205",
        "detection": [{
            "item": "The reported product temperature is > the alarm limit for the specific set type."
        }],
        "causeService": [{
            "item": "Product temperature has exceeded 35.0 °C for platelets and plasma."
        }, {
            "item": "Loose or faulty flex cable failure."
        }, {
            "item": "Defective Product Temperature Sensor."
        }, {
            "item": "Defective Product Chamber CCA."
        }, {
            "item": "Defective Platen CCA."
        }, {
            "item": "Defective Drawer CCA."
        }]
    }, {
        "alarmId": "Mirasol_302",
        "detection": [{
            "item": "The lamps have been commanded on for over 30 seconds, and any reported lamp (individual) chamber sensor raw count is below 500 for a duration of more than 3.0 seconds, and the primary, secondary, and tertiary dose accumulations are zero."
        }],
        "causeService": [{
            "item": "Ballast failure."
        }, {
            "item": "Lamp failure."
        }, {
            "item": "Wiring failure."
        }]
    }, {
        "alarmId": "Mirasol_304",
        "detection": [{
            "item": "The measured agitation rate is more than 5CPM outside the commanded rate (120CPM during run, 70CPM during a warm product pause)."
        }],
        "causeService": [{
            "item": "Possible obstruction binding the platen."
        }, {
            "item": "Dirty or binding agitation slide rods or bearings."
        }, {
            "item": "Defective or maladjusted product chamber drawer safety switch."
        }, {
            "item": "Product drawer frame is loose or misaligned."
        }, {
            "item": "Defective agitation sensor or magnet."
        }, {
            "item": "Defective agitation motor."
        }]
    }, {
        "alarmId": "Mirasol_305",
        "detection": [{
            "item": "A bag-not-present condition lasts over 10 seconds after drawer opened."
        }],
        "causeService": [{
            "item": "Operator has removed bag for more than 10 seconds. (Operator needs to re-confirm product ID to clear alarm)."
        }, {
            "item": "Defective bag presence sensor/quartz clamp."
        }, {
            "item": "Loose or faulty flex cable failure."
        }, {
            "item": "Defective Product Chamber CCA."
        }, {
            "item": "Defective Drawer CCA."
        }]
    }, {
        "alarmId": "Mirasol_306",
        "detection": [{
            "item": "Product ID entered on the confirm product ID screen does not match the product ID of the bag whose illumination is in progress."
        }],
        "causeService": [{
            "item": "Operator entered a product ID that doesn't match the ID of the product that the procedure was started with. (This alarm will follow #305 if the operator scans a different product ID.)"
        }]
    }, {
        "alarmId": "Mirasol_307",
        "detection": [{
            "item": "After a light calibration, the upper or lower average of the four calibration factors from the product sensors (single-photodiodes) has changed from the previous value by more than 5%."
        }, {
            "item": "After a light calibration, the product sensor (single photodiode) calibration factor has changed from the previous calibration factor by more than 8%."
        }],
        "causeService": [{
            "item": "No dose measurement consequences. Failure is related to illuminator."
        }, {
            "item": "Clamps, excessive tubing, or debris is blocking a single-photodiode."
        }, {
            "item": "Radiometer cable is out of holder or raised up/down too high. "
        }, {
            "item": "Quartz is more dirty than the last calibration. Quartz is cleaner than the last calibration. "
        }, {
            "item": "One or more defective primary (lamp chamber CCA) or secondary (single) photodiodes."
        }, {
            "item": "Defective Lamp Chamber CCA."
        }],
        "actionService": [{
            "item": "Inspect quartz, reflectors, and lamps for cleanliness or for any debris, clamps, or excessive tubing blocking the photodiodes."
        }, {
            "item": "See 'Light Calibration Check' in service manual for proper placement of radiometer cable. Perform another light calibration check."
        }, {
            "item": "View log file or use raw values tab to confirm the 4 product light sensors (single-photdiodes) are operating correctly."
        }, {
            "item": "View log file or use raw values tab to confirm the 12 primary photodiodes on the lamp chamber CCA are operating correctly."
        }]
    }, {
        "alarmId": "Mirasol_308",
        "detection": [{
            "item": "After a light calibration, the upper or lower, right-side calibration factor from the product sensor (single photodiode) has changed from the previous calibration factor by more than 8%."
        }, {
            "item": "After a light calibration, the upper and lower, left-side calibration factor from the product sensor (single photodiode) has changed from their previous values by less than 8%."
        }],
        "causeService": [{
            "item": "No dose measurement consequences. Failure is related to illuminator."
        }, {
            "item": "Clamps, excessive tubing, or debris is blocking a single-photodiode."
        }, {
            "item": "Radiometer cable is out of holder or raised up/down too high. "
        }, {
            "item": "Quartz is more dirty than the last calibration. Quartz is cleaner than the last calibration. "
        }, {
            "item": "One or more defective primary (lamp chamber CCA) or secondary (single) photodiodes."
        }, {
            "item": "Defective Lamp Chamber CCA."
        }],
        "actionService": [{
            "item": "See 'Light Calibration Check' in service manual for proper placement of radiometer cable. Perform another light calibration check."
        }, {
            "item": "Inspect quartz, reflectors, and lamps for cleanliness or for any debris, clamps, or excessive tubing blocking the photodiodes."
        }, {
            "item": "View log file or use raw values tab to confirm the 4 product light sensors (single-photdiodes) are operating correctly."
        }, {
            "item": "View log file or use raw values tab to confirm the 12 primary photodiodes on the lamp chamber CCA are operating correctly."
        }]
    }, {
        "alarmId": "Mirasol_309",
        "detection": [{
            "item": "After a light calibration, the upper or lower primary photodiode (lamp chamber CCA) calibration factor has changed from their previous value by more than 5%."
        }],
        "causeService": [{
            "item": "Possible dose measurement consequences. Failure is related to illuminator or radiometer."
        }, {
            "item": "Quartz is more dirty than the last calibration. Quartz is cleaner than the last calibration. "
        }, {
            "item": "One or more defective primary (lamp chamber CCA) or secondary (single) photodiodes."
        }, {
            "item": "This calibration was done with an inaccurate radiometer."
        }, {
            "item": "The last calibration was done with an inaccurate radiometer."
        }],
        "actionService": [{
            "item": "Inspect quartz, reflectors, and lamps for cleanliness or for any debris, clamps, or excessive tubing blocking the photodiodes."
        }, {
            "item": "View log file or use raw values tab to confirm the 4 product light sensors (single-photdiodes) are operating correctly."
        }, {
            "item": "View log file or use raw values tab to confirm the 12 primary photodiodes on the lamp chamber CCA are operating correctly."
        }, {
            "item": "Get a radiometer that is not the one used for the previous or current light calibration. Perform a light calibration check with the different radiometer."
        }]
    }, {
        "alarmId": "Mirasol_401",
        "detection": [{
            "item": "The upper or lower lamp temperature sensor is outside the range 0 °C to 100 °C."
        }],
        "causeService": [{
            "item": "No dose measurement consequences. Failure is related to illuminator."
        }, {
            "item": "Air flow of illuminator does not allow for adequate ventilation."
        }, {
            "item": "Defective IR lamp temperature sensor."
        }, {
            "item": "Defective lamp chamber CCA."
        }, {
            "item": "Defective lamp cooling fan."
        }],
        "actionService": [{
            "item": "Inspect for a 30.5 cm (12 in.) clearance on the right and left sides of the illuminator. Check that there is NO heat source that could be increasing the temperature of the illuminator."
        }, {
            "item": "View log file or use raw values tab to confirm the correct operation of the Melexis lamp temperature sensor or the lamp chamber CCA, and the lamp cooling fan."
        }]
    }, {
        "alarmId": "Mirasol_402",
        "detection": [{
            "item": "The accumulated pause time during an illumination exceeds 60 minutes (most likely caused by a forgotten pause state). (Trigger at 59 minutes to allow for clock accuracy tolerance.)"
        }],
        "causeService": [{
            "item": "Product Treatment was paused for >60 minutes."
        }]
    }, {
        "alarmId": "Mirasol_406",
        "detection": [{
            "item": "Upper and lower lamp temperatures fail to reach fan temperature control points within 600 seconds."
        }],
        "causeService": [{
            "item": "No dose measurement consequences. Failure is related to illuminator."
        }, {
            "item": "Extremely cold ambient temperatures or a very cold machine. The illuminator may have come in from storage, outside, or some cold area."
        }, {
            "item": "Defective IR lamp temperature sensor."
        }, {
            "item": "Defective lamp chamber CCA."
        }],
        "actionService": [{
            "item": "Allow the device to warm up to room temperature then retry the run."
        }, {
            "item": "View log file or use raw values tab to confirm the correct operation of the Melexis lamp temperature sensor or the lamp chamber CCA."
        }]
    }, {
        "alarmId": "Mirasol_407",
        "detection": [{
            "item": "Radiometer presence not detected when drawer is closed."
        }, {
            "item": "Radiometer reports both sides up at the same time for 10 consecutive samples (approximately 3 to 6 seconds) while the drawer is closed."
        }],
        "causeService": [{
            "item": "No dose measurement consequences. Failure is related to illuminator or radiometer."
        }, {
            "item": "Radiometer not plugged in to illuminator or not plugged in completely."
        }, {
            "item": "Illuminator radiometer connector on product drawer is defective."
        }, {
            "item": "Defective Radiometer. Failed internal switches or external connector."
        }],
        "actionService": [{
            "item": "Check that the radiometer is fully plugged in."
        }, {
            "item": "Visually inspect the illuminator radiometer connector. Test the continuity of the illuminator radiometer connector."
        }, {
            "item": "To confirm operation of the radiometer internal switches: Plug radiometer into a different illuminator (do not clamp it down). Enter an operator ID or some number. The illuminator display will show what side is up. Troubleshoot using the display and turning the radiometer. "
        }]
    }, {
        "alarmId": "Mirasol_408",
        "detection": [{
            "item": "Lamps have been commanded on and the side sensor fails to indicate the expected side for 3 consecutive samples"
        }],
        "causeService": [{
            "item": "No dose measurement consequences. Failure is related to illuminator or radiometer."
        }, {
            "item": "Radiometer not plugged in completely."
        }, {
            "item": "Illuminator radiometer connector on product drawer is defective."
        }, {
            "item": "Defective radiometer. Failed internal switches or external connector."
        }],
        "actionService": [{
            "item": "Check that the radiometer is fully plugged in."
        }, {
            "item": "Visually inspect the illuminator radiometer connector. Test the continuity of the illuminator radiometer connector."
        }, {
            "item": "To confirm operation of the radiometer internal switches: Plug radiometer into a different illuminator (do not clamp it down). Enter an operator ID or some number. The illuminator display will show what side is up. Troubleshoot using the display and turning the radiometer. "
        }]
    }, {
        "alarmId": "Mirasol_409",
        "detection": [{
            "item": "Since the lamps were turned on at run start, they have been commanded off more than 15 times."
        }],
        "causeService": [{
            "item": "The product treatment has been stopped 15 times since the beginning of the procedure."
        }, {
            "item": "Defective bag presence sensor."
        }, {
            "item": "Defective product door switch."
        }, {
            "item": "Defective flex cable."
        }, {
            "item": "Defective product door interlock."
        }, {
            "item": "Defective lamp lid/drawer interlock."
        }]
    }, {
        "alarmId": "Mirasol_410",
        "detection": [{
            "item": "The reported product temperature (highest of the two) has exceeded product temperature limit for the specific set type."
        }],
        "causeService": [{
            "item": "Starting product temperatures may be very high."
        }, {
            "item": "Extremely high ambient temperatures."
        }, {
            "item": "Defective Product Temperature Sensor CCA."
        }, {
            "item": "Failed or loose flex cable."
        }, {
            "item": "Defective Platen CCA."
        }, {
            "item": "Defective product chamber board."
        }]
    }, {
        "alarmId": "Mirasol_411",
        "detection": [{
            "item": "An upper or lower lamp chamber calibration factor for the primary photodiodes calculated in the second calibration pass (same side, 1 or 2) differs from the first pass value by more than 1%."
        }, {
            "item": "The average of the 4 upper or lower product chamber sensor secondary photodiode calibration factors calculated in the second calibration pass (same side, 1 or 2) differs from the first pass average value by more than 6%."
        }, {
            "item": "The average of the upper or lower lamp chamber calibration factor for the primary photodiodes calculated from both passes on side 2 differs from the same average for side 1 by more than 5%."
        }, {
            "item": "The average of the 4 upper or lower product chamber sensor secondary photodiode calibration factors calculated from both passes on side 2 differs from the same average for side 1 by more than 6%."
        }],
        "causeService": [{
            "item": "No dose measurement consequences. Failure is related to illuminator or radiometer."
        }, {
            "item": "Radiometer cable not positioned correctly."
        }, {
            "item": "Obstructions in the light path that changed during the calibration (e.g. side one calibration passed, but side two calibration was obstructed)."
        }, {
            "item": "Dirty radiometer photodiodes (e.g. clean during side one calibration, but photodiode became dirty during transition to side two calibration)."
        }, {
            "item": "Defective Single Photodiode Sensor CCA."
        }, {
            "item": "Defective Lamp Chamber CCA."
        }],
        "actionService": [{
            "item": "Check position of radiometer cable."
        }, {
            "item": "Check cleanliness of radiometer."
        }, {
            "item": "View log file or use raw values tab to confirm the 4 product light sensors (single-photodiodes) are operating correctly."
        }, {
            "item": "View log file or use raw values tab to confirm the 12 primary photodiodes on the lamp chamber CCA are operating correctly."
        }]
    }, {
        "alarmId": "Mirasol_412",
        "detection": [{
            "item": "Any one of the new primary photodiode calibration factors is outside the range 2600 to 8900 mW/cm²/count."
        }, {
            "item": "Any one of the new single photodiode calibration factors is outside the range 1900 to 9100 mW/cm²/count."
        }],
        "causeService": [{
            "item": "No dose measurement consequences. Failure is related to illuminator or radiometer."
        }, {
            "item": "Excessively dirty reflectors, lamps, quartz windows or sensor faces."
        }, {
            "item": "Defective Single Photodiode CCA."
        }, {
            "item": "Defective Lamp Chamber CCA."
        }, {
            "item": "Defective radiometer."
        }],
        "actionService": [{
            "item": "Inspect quartz, reflectors, and lamps for cleanliness or for any debris, clamps, or excessive tubing blocking the photodiodes."
        }, {
            "item": "View log file or use raw values tab to confirm the 4 product light sensors (single-photdiodes) are operating correctly."
        }, {
            "item": "View log file or use raw values tab to confirm the 12 primary photodiodes on the lamp chamber CCA are operating correctly."
        }, {
            "item": "If both detections are found this is a radiometer failure. Return the radiometer. Follow your regional procedure."
        }]
    }, {
        "alarmId": "Mirasol_413",
        "detection": [{
            "item": "The product data received from the Mirasol Manager specifies a disposable set type the Illuminator cannot process."
        }, {
            "item": "The CRC value for the MM config file associated with a downloaded product does not match the CRC value on the Illum for the same set type config file."
        }],
        "causeService": [{
            "item": "Set type configuraiton files are different on the Illuminator and Mirasol Manager"
        }, {
            "item": "Either the Illumiantor or Mirasol Manager has a set type on it the other system does not."
        }]
    }, {
        "alarmId": "Mirasol_414",
        "detection": [{
            "item": "Product Type code is associated with an illumination index percentage value that is outside the configured range."
        }, {
            "item": "Product Type code is associated with an illumination index percentage value of 100% and Full Volume Dose is \u003C=\u00A00."
        }, {
            "item": "Product type table received from the Mirasol Manager is empty."
        }],
        "causeService": [{
            "item": "Mirasol Manager setup is not complete."
        }]
    }, {
        "alarmId": "Mirasol_500",
        "detection": [{
            "item": "TempMessageLogFile.tmp file is unusable."
        }],
        "causeService": [{
            "item": "Corrupted or deleted TempMessageLogFile.tmp file."
        }, {
            "item": "Defective SBC."
        }, {
            "item": "Defective compact flash card."
        }, {
            "item": "New illuminator software installation."
        }],
        "actionService": [{
            "item": "Reboot illuminator."
        }]
    }, {
        "alarmId": "Mirasol_501",
        "detection": [{
            "item": "IllumState6.dat file is unreadable, fails a Cyclic Redundancy Check (CRC) or wrong version."
        }],
        "causeService": [{
            "item": "Corrupted or deleted IllumState6.dat file. The file contains administrative screen settings (volumes, tares, weight ranges, etc.) These settings need to be re-entered."
        }, {
            "item": "Defective SBC."
        }, {
            "item": "Defective compact flash card."
        }, {
            "item": "New  illuminator software installation."
        }],
        "actionService": [{
            "item": "Reboot illuminator."
        }]
    }, {
        "alarmId": "Mirasol_502",
        "detection": [{
            "item": "The last maximum intensity from the upper or lower lamp chamber sensors was below 4.99 mW/cm² (78% of nominal 100hr brightness)."
        }, {
            "item": "After the 102 alarm occurs, the lamps have approximately 20 to 25 hours of use remaining until the 502 alarm occurs. "
        }],
        "causeService": [{
            "item": "Lamps have reached the end of allowable life."
        }, {
            "item": "Excessively dirty reflectors, lamps, quartz windows, or sensor faces."
        }, {
            "item": "Initial setup of new Illuminator SBC software."
        }, {
            "item": "Defective Single Photodiode CCA."
        }, {
            "item": "Defective Lamp Chamber CCA."
        }, {
            "item": "Change in calibration factors after a light calibration check."
        }],
        "actionService": [{
            "item": "Routine Maintenance: Replace all 12 lamps."
        }, {
            "item": "Clean reflectors, lamps, quartz windows, and sensor faces. After cleaning, perform light calibration check and a successful test run with a test plate."
        }, {
            "item": "After setup of new software, perform a light calibration check and a successful test run with a test plate."
        }, {
            "item": "Defective CCAs can be found by reading the values in the log file."
        }, {
            "item": "Perform a light calibration check. Due to small differences in radiometers and calibrations the factors may change enough after one calibration to raise the intensity value above the alarm limit. If it does not clear the alarm it is not a failure. The lamps will need to be replaced."
        }]
    }, {
        "alarmId": "Mirasol_503",
        "detection": [{
            "item": "IllumLog.cdb file is unusable."
        }],
        "causeService": [{
            "item": "Corrupted or deleted IllumLog.cdb. This file contains the on-board run history. They can continue to run, but the Illuminator will not be able to detect if a product ID has already been processed. When they start running again, this log will contain only runs performed since the failure."
        }]
    }, {
        "alarmId": "Mirasol_504",
        "detection": [{
            "item": "One or more CRC checks fail when data is retrieved from the illumlog.cdb file."
        }],
        "causeService": [{
            "item": "Corrupted or deleted treatment record in the illumlog.cdb file."
        }, {
            "item": "Defective SBC."
        }, {
            "item": "Defective compact flash card. Some run history may be lost, compromising the Illuminator’s ability to detect duplicate runs."
        }]
    }, {
        "alarmId": "Mirasol_602",
        "detection": [{
            "item": "5V power supply is outside the tolerance 4.8V to 5.2V."
        }],
        "causeService": [{
            "item": "Defective cable from power supply to control CCA."
        }, {
            "item": "Defective power supply."
        }, {
            "item": "Defective Control CCA."
        }]
    }, {
        "alarmId": "Mirasol_603",
        "detection": [{
            "item": "The GUI asks the control board for its firmware version and checksum. If the control board does not answer the request, the GUI raises this alarm."
        }],
        "causeService": [{
            "item": "Active 608 Alarm GUI/CB communications have failed (check cable connection)."
        }, {
            "item": "Control Board (HW or FW failure)."
        }]
    }, {
        "alarmId": "Mirasol_604",
        "detection": [{
            "item": "The GUI asks the control board for its firmware version and checksum. If the firmware answers, the GUI compares the checksum with that contained in the file \u005C\u005Cstorage card\u005Cillum.s19. If they differ, the GUI raises this alarm."
        }],
        "causeService": [{
            "item": "Bad software installation."
        }, {
            "item": "Control board (HW or FW failure)."
        }]
    }, {
        "alarmId": "Mirasol_608",
        "detection": [{
            "item": "The alarm appears when all lamps, fans, and agitation motor are at maximum and are turned on simultaneously."
        }],
        "causeService": [{
            "item": "High current draw from the lamp chamber fans."
        }, {
            "item": "AC mains voltage fluctuation. Building power fluctuations."
        }, {
            "item": "Faulty SBC."
        }, {
            "item": "Faulty Control CCA (unique LED blink pattern present)."
        }, {
            "item": "Faulty cabling between the SBC and Control CCA."
        }, {
            "item": "Software error, can try cycling power to see if it clears up."
        }],
        "actionService": [{
            "item": "Cycle power."
        }]
    }, {
        "alarmId": "Mirasol_625",
        "detection": [{
            "item": "Failed attempt to home the platen at power up (not attempted if drawer open)."
        }, {
            "item": "Failed attempt to home the platen when drawer closed at run start."
        }, {
            "item": "Failed attempt to home the platen when drawer closed and not in run mode."
        }],
        "causeService": [{
            "item": "Obstruction binding the platen. "
        }, {
            "item": "Product drawer frame is loose or misaligned."
        }, {
            "item": "Defective interlock switch."
        }, {
            "item": "Defective agitation sensor or magnet."
        }, {
            "item": "Defective agitation motor."
        }, {
            "item": "Defective control board."
        }],
        "actionService": [{
            "item": "Check for obstuction or binding of the platen. Turn device off and move the platen manually."
        }, {
            "item": "Check that all three interlock switches operate correctly by viewing the LEDs on the control board while as you open and close the drawers."
        }, {
            "item": "Check for correct operation of the sensor on the quartz clamp. Check that the magnet is not damaged. Close the clamp to check for an interrmitent signal: The clamp may have too much side-to-side movement."
        }, {
            "item": "Check the motor cable from the Control CCA to the Drawer CCA for damage."
        }, {
            "item": "Test the motor."
        }, {
            "item": "Measure 24 Vdc test point."
        }]
    }, {
        "alarmId": "Mirasol_627",
        "detection": [{
            "item": "A CRC error indicates that a corrupted executable image was loaded on the GUI computer (the control board will use a blinking LED to signal this failure), or a CRC error indicates that a corrupted ILLUM.CFG file was loaded."
        }, {
            "item": "Multiple .XFG files contain the same value for SetTypeCode."
        }, {
            "item": "Multiple .XFG file names start with 'illum'"
        }, {
            "item": "A corrupted .XFG file was loaded"
        }, {
            "item": "A CRD file name is not '00000000.CRD' and CRC sum error indicates an incorrect set of .XFG files is present."
        }],
        "causeService": [{
            "item": "Software error, can try cycling power to see if it clears up."
        }, {
            "item": "Defective SBC."
        }, {
            "item": "Defective compact flash card."
        }, {
            "item": "Installation—wrong files loaded onto SBC."
        }]
    }, {
        "alarmId": "Mirasol_630",
        "detection": [{
            "item": "The reported product temperature from either sensor is outside the range -5 °C to 55 °C for 3 consecutive measurements (approximately 4.5 seconds)."
        }, {
            "item": "At the end of a successful run (as soon as the target dose is reached), the temperature reported by the two sensors differs by more than 2 °C for 3 consecutive measurements (approximately 4.5 seconds)."
        }],
        "causeService": [{
            "item": "Loose or failed flex cable (most likely cause)."
        }, {
            "item": "Product was excessively warm when placed on product platen."
        }, {
            "item": "Defective platen CCA."
        }, {
            "item": "Defective drawer CCA."
        }, {
            "item": "Defective Product Temperature Sensor CCA."
        }, {
            "item": "Failed product chamber fans (unlikely due to extreme failure)."
        }]
    }, {
        "alarmId": "Mirasol_632",
        "detection": [{
            "item": "A lamp chamber CCA ambient temperature sensor (upper or lower) reports a temperature outside the range 0.0 °C to 48.0 °C for 2 consecutive measurements."
        }, {
            "item": "Recorded in the log file under the names: TEMP UL AMBIENT and TEMP LL AMBIENT"
        }],
        "causeService": [{
            "item": "Blocked air flow in or out of the illuminator. Low or high external air temperatures."
        }, {
            "item": "Defective Lamp Chamber CCA or Melexis lamp sensor."
        }, {
            "item": "Failed lamp fans."
        }, {
            "item": "Hot ballast CCA."
        }, {
            "item": "Seal between the lower drawer and fan shroud is missing, torn, or misaligned."
        }],
        "actionService": [{
            "item": "Inspect for a 30.5 cm (12 in.) clearance on the right and left sides of the illuminator. Check that there is NO heat source that could be increasing the temperature of the illuminator."
        }, {
            "item": "Measure the external air temperature near the left side of the illuminator."
        }, {
            "item": "Compare the product temperature sensors with the lamp chamber ambient temperature sensors."
        }, {
            "item": "Use the service software to test the fans by turning them on and off."
        }]
    }, {
        "alarmId": "Mirasol_633",
        "detection": [{
            "item": "A radiometer temperature sensor (side 1 or 2) is reporting a temperature outside the range 0.0 °C to 48.0 °C for 2 consecutive measurements."
        }],
        "causeService": [{
            "item": "No dose measurement consequences. Failure is related to radiometer."
        }, {
            "item": "Extreme radiometer temperatures. For example, a radiometer just in from freezing warehouse or hot car."
        }, {
            "item": "Defective radiometer."
        }],
        "actionService": [{
            "item": "Wait for the radiometer to come to room temperature, if you suspect the radiometer was recently removed from an environment with extreme temperatures."
        }, {
            "item": "If the radiometer is at room temperature, this is a radiometer failure. Return the radiometer. Follow your regional procedure."
        }]
    }, {
        "alarmId": "Mirasol_634",
        "detection": [{
            "item": "Lamps on: Any irradiance sensor's raw count outside the range 0-4093 counts (2 steps below max) for 2 consecutive measurements (approx. 3.0 seconds)."
        }, {
            "item": "Lamps off: Any irradiance sensor's raw count outside the range 0-31 for 2 consecutive measurements (approx. 3.0 seconds) after lamps have been commanded off for 2750 ms."
        }],
        "causeService": [{
            "item": "Defective Lamp Chamber CCA."
        }, {
            "item": "Defective Control CCA."
        }, {
            "item": "Defective Single-photodiode CCA"
        }]
    }, {
        "alarmId": "Mirasol_635",
        "detection": [{
            "item": "The lamps have been commanded on for over 30 seconds and any reported lamp (individual) chamber sensor raw count is below 500 for a duration of over 3.0 seconds and the primary, secondary, or tertiary dose is not zero."
        }, {
            "item": "The lamps have been commanded off for over 15 seconds and any reported lamp chamber (individual) sensor intensity is above 31 counts for a duration of over 3.0 seconds."
        }],
        "causeService": [{
            "item": "Lower drawer open."
        }, {
            "item": "Defective Lamp Chamber CCA."
        }, {
            "item": "Ballast failure: ballast fails to turn lamps on or off."
        }, {
            "item": "Interlock switches defective."
        }, {
            "item": "Defective lamp(s)."
        }, {
            "item": "Lamp(s) not fully seated in lamp sockets."
        }],
        "actionService": [{
            "item": "In the log file (see ballast CCA description in service manual) look for the following:"
        }, {
            "item": "If all six ballast circuits are OFF. 1) an operator could have left a drawer open 2) one or more safety switches could be damaged or disconnected 3) the AC distribution board could be damaged."
        }, {
            "item": "If all three circuits on one ballast are OFF. 1) the ballast could be damaged or disconnected."
        }, {
            "item": "If one circuit is OFF (two lamps). 1) one or both lamps are not fully engaged in the sockets 2) one or two lamps could be damaged  3) a ballast could be damaged."
        }]
    }, {
        "alarmId": "Mirasol_638",
        "detection": [{
            "item": "Lamps remained on after the prescribed dose was delivered. An overdose of at least 5.4% has been delivered."
        }],
        "causeService": [{
            "item": "Ballast failure—Ballasts fail to turn lamps off at correct time."
        }, {
            "item": "Control CCA failure."
        }]
    }, {
        "alarmId": "Mirasol_639",
        "detection": [{
            "item": "The GUI board periodically compares its process run time with the control board time. The two differ by more than 0.6%."
        }],
        "causeService": [{
            "item": "Defective SBC."
        }, {
            "item": "Defective Control CCA."
        }]
    }, {
        "alarmId": "Mirasol_640",
        "detection": [{
            "item": "The process of loading new firmware onto the control board has failed."
        }],
        "causeService": [{
            "item": "Control Board failure."
        }, {
            "item": "SBC failure."
        }, {
            "item": "SBC/CB communications failure."
        }]
    }, {
        "alarmId": "Mirasol_641",
        "detection": [{
            "item": "There is no valid *.CRE file for the illum.s19 file in folder “storagecard”."
        }],
        "causeService": [{
            "item": "Software installation error."
        }, {
            "item": "SBC failure."
        }]
    }, {
        "alarmId": "Mirasol_645",
        "detection": [{
            "item": "The SBC will compare the control CCA's final radiometer average intensity values (upper and lower), with those computed by SBC for that pass. If those average values differ by more than 1.0% this alarm will be displayed."
        }, {
            "item": "The radiometer primary A/D check channel average raw value (SBC-computed) is outside the range 2388 to 2612 counts."
        }, {
            "item": "The radiometer secondary A/D check channel average raw value (SBC-computed) differs from the primary's by more than 18 counts."
        }],
        "causeService": [{
            "item": "No dose measurement consequences. Failure is related to illuminator or radiometer."
        }, {
            "item": "Control CCA failure."
        }, {
            "item": "SBC failure."
        }, {
            "item": "Radiometer failure."
        }]
    }, {
        "alarmId": "Mirasol_646",
        "detection": [{
            "item": "The SBC sees a 5.4% difference between in primary dose value and the secondary dose value as compared to the target dose."
        }, {
            "item": "Note: Primary dose uses the primary photodiodes and is calculated by the control CCA. Secondary dose uses the single photodiodes and is calculated by the control CCA."
        }],
        "causeService": [{
            "item": "Current product is lost due to dose measurement error. All product prior to this alarm is good. Failure is illuminator related."
        }, {
            "item": "Lamps changed or cleaned without doing a light check calibration. Note: Rotating single lamps end-to-end can cause a change to the light field."
        }, {
            "item": "The slide clamp from the disposable set may be over the right front single photodiode."
        }, {
            "item": "Excessively dirty reflectors, lamps, quartz windows, or sensor faces."
        }, {
            "item": "Defective Single Photodiode Sensor CCA."
        }, {
            "item": "Defective Lamp Chamber CCA."
        }],
        "actionService": [{
            "item": "Check that the right front single photodiode is clear of debris."
        }, {
            "item": "Inspect quartz, reflectors, and lamps for cleanliness or for any debris, clamps, or excessive tubing blocking the photodiodes."
        }, {
            "item": "View log file or use raw values tab to confirm the 4 product light sensors (single-photdiodes) are operating correctly."
        }, {
            "item": "View log file or use raw values tab to confirm the 12 primary photodiodes on the lamp chamber CCA are operating correctly."
        }]
    }, {
        "alarmId": "Mirasol_647",
        "detection": [{
            "item": "The SBC calculated a 5.4% difference between the primary dose value and the tertiary dose value."
        }, {
            "item": "Note: Primary dose uses the primary photodiodes and is calculated by the control CCA. Tertiary dose is a calculation performed by the SBC that uses the primary photodiodes."
        }],
        "causeService": [{
            "item": "Current product is lost due to dose measurement error. All product prior to this alarm is good. Failure is illuminator related."
        }, {
            "item": "Control CCA or SBC failure."
        }, {
            "item": "Software failure."
        }, {
            "item": "Excessively dirty reflectors, lamps, quartz windows, or sensor faces."
        }, {
            "item": "Defective Single Photodiode Sensor CCA."
        }, {
            "item": "Defective Lamp Chamber CCA."
        }],
        "actionService": [{
            "item": "Inspect quartz, reflectors, and lamps for cleanliness or for any debris, clamps, or excessive tubing blocking the photodiodes."
        }, {
            "item": "View log file or use raw values tab to confirm the 12 primary photodiodes on the lamp chamber CCA are operating correctly."
        }]
    }, {
        "alarmId": "Mirasol_690",
        "detection": [{
            "item": "Any primary A/D check channel reports a raw value outside the range 2865 to 3135 counts for 2 consecutive measurements."
        }, {
            "item": "Any primary and its secondary A/D check channel report raw values that imply more that 100mV difference in the measurement of the 5V reference as follows: ((primary counts) × 5/3 - (secondary counts) × 2) > 100 for 2 consecutive measurements."
        }, {
            "item": "When the radiometer is present and the drawer is closed and the radiometer's primary A/D check channel (Conv4) reports a raw value outside the range 2388 to 2612 counts (2500 ±4.5%) for 2 consecutive measurements."
        }, {
            "item": "When the radiometer is present and the drawer is closed and the radiometer's secondary A/D check channel (Conv5) reports a raw value that differs from the primary's by more than 18 counts for 2 consecutive measurements."
        }],
        "causeService": [{
            "item": "Current product is lost due to dose measurement error. All product prior to this alarm is good. Failure is illuminator related."
        }, {
            "item": "Lamp CCA failure (or A/D on CCA fails)."
        }, {
            "item": "Radiometer CCA failure."
        }]
    }, {
        "alarmId": "Mirasol_801",
        "detection": [{
            "item": "A barcode has been scanned to fix the IP address."
        }],
        "causeService": [{
            "item": "IP address changed"
        }]
    }, {
        "alarmId": "Mirasol_802",
        "detection": [{
            "item": "Barcode “MFH32744A8I63X” has been scanned. Press [back button] to continue."
        }]
    }, {
        "alarmId": "Mirasol_803",
        "detection": [{
            "item": "Barcode “1754M13JS272N3” has been scanned. Press [back button] to continue."
        }]
    }, {
        "alarmId": "Mirasol_804",
        "detection": [{
            "item": "Barcode “6092Y72HK011B4” has been scanned. Press [back button] to continue."
        }]
    }, {
        "alarmId": "Mirasol_805",
        "detection": [{
            "item": "Barcode “\u003Cname>.scl” has been scanned, scale configuration file has been found, scale configuration parameters have been installed."
        }]
    }, {
        "alarmId": "Mirasol_806",
        "detection": [{
            "item": "The SBC is loading new firmware on to the control CCA. DO NOT turn OFF power to the illuminator when this alarm is displayed. A spinning hour glass will appear after 10 seconds to indicate the firmware is loading."
        }],
        "causeService": [{
            "item": "Load New Firmware Barcode was scanned."
        }],
        "actionService": [{
            "item": "Wait for alarm 808, then cycle power."
        }]
    }, {
        "alarmId": "Mirasol_807",
        "detection": [{
            "item": "The Illuminator network name, used for DHCP, has been modified."
        }]
    }, {
        "alarmId": "Mirasol_808",
        "detection": [{
            "item": "A network parameter value has been changed that requires a power cycle to take effect. The MIRASOL Illuminator needs to have power cycled to clear the alarm."
        }]
    }, {
        "alarmId": "Mirasol_810",
        "detection": [{
            "item": "Barcode scanned to reduce data to 100 most recent logs"
        }],
        "causeService": [{
            "item": "Scanned barcode"
        }],
        "actionService": [{
            "item": "Wait for alarm 808, then cycle power."
        }]
    }, {
        "alarmId": "Mirasol_820",
        "detection": [{
            "item": "Barcode scanned to delete all log files."
        }],
        "causeService": [{
            "item": "Scanned barcode"
        }],
        "actionService": [{
            "item": "Wait for alarm 808, then cycle power."
        }]
    }, {
        "alarmId": "Mirasol_701",
        "detection": ["Logging Error"],
        "actionService": [{
            "item": "The system has encountered an internal error. Contact customer support for assistance in troubleshooting this alarm."
        }]
    }, {
        "alarmId": "Mirasol_702",
        "detection": ["Assertion"],
        "causeService": [{
            "item": "Compact flash may be full."
        }, {
            "item": "Intermittent quartz clamp. Hourglass does not rotate or move."
        }],
        "actionService": [{
            "item": "Check the capacity of the compact flash."
        }, {
            "item": "Check for correct operation of the sensor on the quartz clamp. Check that the magnet is not damaged. Close the clamp to check for an intermitent signal: The clamp may have too much side-to-side movement."
        }, {
            "item": "Check the compact flash to see if the *.scl file is present."
        }, {
            "item": "Contact customer support for assistance in troubleshooting this alarm."
        }]
    }, {
        "alarmId": "Mirasol_703",
        "detection": ["Save State Error"],
        "actionService": [{
            "item": "The system has encountered an internal error. Contact customer support for assistance in troubleshooting this alarm."
        }]
    }, {
        "alarmId": "Mirasol_704",
        "detection": ["Previous Run ID Check Error"],
        "actionService": [{
            "item": "The system has encountered an internal error. Contact customer support for assistance in troubleshooting this alarm."
        }]
    }, {
        "alarmId": "Mirasol_705",
        "detection": ["No Dialog"],
        "actionService": [{
            "item": "The system has encountered an internal error. Contact customer support for assistance in troubleshooting this alarm."
        }]
    }, {
        "alarmId": "Mirasol_706",
        "detection": ["Comm X Error"],
        "actionService": [{
            "item": "The system has encountered an internal error. Contact customer support for assistance in troubleshooting this alarm."
        }]
    }, {
        "alarmId": "Mirasol_707",
        "detection": ["Serial Comm Error"],
        "actionService": [{
            "item": "The system has encountered an internal error. Contact customer support for assistance in troubleshooting this alarm."
        }]
    }, {
        "alarmId": "Mirasol_709",
        "detection": ["Serial Comm Error Unrecognized Command"],
        "actionService": [{
            "item": "The system has encountered an internal error. Contact customer support for assistance in troubleshooting this alarm."
        }]
    }, {
        "alarmId": "Mirasol_710",
        "detection": ["Serial Comm Error Wrong Response"],
        "actionService": [{
            "item": "The system has encountered an internal error. Contact customer support for assistance in troubleshooting this alarm."
        }]
    }, {
        "alarmId": "Mirasol_711",
        "detection": ["Serial Comm Error Wrong Response Length"],
        "actionService": [{
            "item": "The system has encountered an internal error. Contact customer support for assistance in troubleshooting this alarm."
        }]
    }, {
        "alarmId": "Mirasol_712",
        "detection": ["Serial Comm Error Wrong Command Size"],
        "actionService": [{
            "item": "The system has encountered an internal error. Contact customer support for assistance in troubleshooting this alarm."
        }]
    }, {
        "alarmId": "Mirasol_713",
        "detection": ["Serial Comm Error Wrong Command Format"],
        "actionService": [{
            "item": "The system has encountered an internal error. Contact customer support for assistance in troubleshooting this alarm."
        }]
    }, {
        "alarmId": "Mirasol_714",
        "detection": ["Serial Comm Error Wrong Command Checksum"],
        "actionService": [{
            "item": "The system has encountered an internal error. Contact customer support for assistance in troubleshooting this alarm."
        }]
    }, {
        "alarmId": "Mirasol_715",
        "detection": ["Serial Comm Error Unexpected Response"],
        "actionService": [{
            "item": "The system has encountered an internal error. Contact customer support for assistance in troubleshooting this alarm."
        }]
    }, {
        "alarmId": "Mirasol_716",
        "detection": ["Serial Comm Programming Error"],
        "actionService": [{
            "item": "The system has encountered an internal error. Contact customer support for assistance in troubleshooting this alarm."
        }]
    }, {
        "alarmId": "Mirasol_717",
        "detection": ["Serial Comm Data Link Error"],
        "actionService": [{
            "item": "The system has encountered an internal error. Contact customer support for assistance in troubleshooting this alarm."
        }]
    }, {
        "alarmId": "Mirasol_718",
        "detection": ["Serial Comm Checksum Error"],
        "actionService": [{
            "item": "The system has encountered an internal error. Contact customer support for assistance in troubleshooting this alarm."
        }]
    }, {
        "alarmId": "Mirasol_719",
        "detection": ["Serial Comm Size Error"],
        "actionService": [{
            "item": "The system has encountered an internal error. Contact customer support for assistance in troubleshooting this alarm."
        }]
    }, {
        "alarmId": "Mirasol_720",
        "detection": ["Serial Comm Escape Error"],
        "actionService": [{
            "item": "The system has encountered an internal error. Contact customer support for assistance in troubleshooting this alarm."
        }]
    }, {
        "alarmId": "Mirasol_721",
        "detection": ["Serial Comm X Error"],
        "actionService": [{
            "item": "The system has encountered an internal error. Contact customer support for assistance in troubleshooting this alarm."
        }]
    }, {
        "alarmId": "Mirasol_722",
        "detection": ["Comm Port Closed"],
        "actionService": [{
            "item": "The system has encountered an internal error. Contact customer support for assistance in troubleshooting this alarm."
        }]
    }, {
        "alarmId": "Mirasol_723",
        "detection": ["Unknown Controller State"],
        "actionService": [{
            "item": "The system has encountered an internal error. Contact customer support for assistance in troubleshooting this alarm."
        }]
    }, {
        "alarmId": "Mirasol_724",
        "detection": ["Serial Comm Packet Error Timeout"],
        "actionService": [{
            "item": "The system has encountered an internal error. Contact customer support for assistance in troubleshooting this alarm."
        }]
    }, {
        "alarmId": "Mirasol_746",
        "detection": ["Processor State Mismatch"],
        "actionService": [{
            "item": "The system has encountered an internal error. Contact customer support for assistance in troubleshooting this alarm."
        }]
    }, {
        "alarmId": "Mirasol_747",
        "detection": ["Logging Error Conclude Run Record"],
        "actionService": [{
            "item": "The system has encountered an internal error. Contact customer support for assistance in troubleshooting this alarm."
        }]
    }, {
        "alarmId": "Mirasol_748",
        "detection": ["Logging Error Conclude Run File"],
        "actionService": [{
            "item": "The system has encountered an internal error. Contact customer support for assistance in troubleshooting this alarm."
        }]
    }, {
        "alarmId": "Mirasol_749",
        "detection": ["Logging Error Create Misc Log Entry"],
        "actionService": [{
            "item": "The system has encountered an internal error. Contact customer support for assistance in troubleshooting this alarm."
        }]
    }, {
        "alarmId": "Mirasol_750",
        "detection": ["Logging Error Create Header Record"],
        "actionService": [{
            "item": "The system has encountered an internal error. Contact customer support for assistance in troubleshooting this alarm."
        }]
    }, {
        "alarmId": "Mirasol_751",
        "detection": ["Logging Error Create Periodic Run Record"],
        "actionService": [{
            "item": "The system has encountered an internal error. Contact customer support for assistance in troubleshooting this alarm."
        }]
    }, {
        "alarmId": "Mirasol_752",
        "detection": ["Logging Error Crop Oldest Files"],
        "actionService": [{
            "item": "The system has encountered an internal error. Contact customer support for assistance in troubleshooting this alarm."
        }]
    }, {
        "alarmId": "Mirasol_753",
        "detection": ["Logging Error Create Run Record"],
        "actionService": [{
            "item": "The system has encountered an internal error. Contact customer support for assistance in troubleshooting this alarm."
        }]
    }, {
        "alarmId": "Mirasol_754",
        "detection": ["Logging Error Create Run File"],
        "actionService": [{
            "item": "The system has encountered an internal error. Contact customer support for assistance in troubleshooting this alarm."
        }]
    }, {
        "alarmId": "Mirasol_755",
        "detection": ["Logging Error Establish Logging"],
        "actionService": [{
            "item": "The system has encountered an internal error. Contact customer support for assistance in troubleshooting this alarm."
        }]
    }, {
        "alarmId": "Mirasol_756",
        "detection": ["Logging Error Create Calibration Record"],
        "actionService": [{
            "item": "The system has encountered an internal error. Contact customer support for assistance in troubleshooting this alarm."
        }]
    }, {
        "alarmId": "Mirasol_757",
        "detection": ["Logging Error Create Calibration Run Record"],
        "actionService": [{
            "item": "The system has encountered an internal error. Contact customer support for assistance in troubleshooting this alarm."
        }]
    }, {
        "alarmId": "Mirasol_758",
        "detection": ["Logging Error Verify Processed Run Logs"],
        "actionService": [{
            "item": "The system has encountered an internal error. Contact customer support for assistance in troubleshooting this alarm."
        }]
    }, {
        "alarmId": "Mirasol_760",
        "detection": ["Serial Comm Error Timeout Failure"],
        "actionService": [{
            "item": "The system has encountered an internal error. Contact customer support for assistance in troubleshooting this alarm."
        }]
    }, {
        "alarmId": "Mirasol_761",
        "detection": ["Delete State File Error"],
        "actionService": [{
            "item": "The system has encountered an internal error. Contact customer support for assistance in troubleshooting this alarm."
        }]
    }]
}