{"strings": {
    "cause": "Posible causa",
    "action": "Pasos de acción",
    "start": "Pruebas de puesta en marcha de la máquina",
    "not_conn": "Paciente no conectado",
    "conn": "Paciente conectado",
    "disconn": "Paciente desconectado",
    "instructions": "Instrucciones de la pantalla",
    "information": "Información sobre la alarma",
    "identification": "Identificación de la alarma",
    "layer": "Capa",
    "system": "Sistema",
    "protocol": "Protocolo",
    "alarm_name": "Nombre de la alarma",
    "alarm_expl": "Explicación de la alarma",
    "state": "Estado del sistema",
        "message_number": "Número de mensaje",
    "message_type": "Tipo de mensaje",
    "version": "Versión",   
    "occurs": "Se produce durante",
    "more_info1": "Más información 1",
    "more_info2": "Más información 2",
    "more_info3": "Más información 3",
    "more_info4": "Más información 4",
    "more_info5": "Más información 5",
    "more_info6": "Más información 6",
    "description": "Descripción de la alarma",
    "response": "Respuesta del sistema",
    "causeaction": "Posible causa/Acción del usuario",
    "possible_cause": "Posible causa",
    "operator_action": "Acción del usuario"
}}
