{"strings": {
    "cause": "Возможная причина",
    "action": "Действия оператора",
    "start": "Проверки при запуске аппарата",
    "not_conn": "Пациент не подсоединен",
    "conn": "Пациент подсоединен",
    "disconn": "Пациент отсоединен",
    "instructions": "Инструкции на экране",
    "information": "Информация о сигнале тревоги",
    "identification": "Идентификатор сигнала тревоги",
    "layer": "Слой",
    "system": "Система",
    "protocol": "Протокол",
    "alarm_name": "Название сигнала тревоги",
    "alarm_expl": "Описание сигнала тревоги",
    "state": "System State",
        "message_number": "Номер сообщения",
    "message_type": "Тип сообщения",
    "version": "Версия",    
    "occurs": "Стадия процедуры",
    "more_info1": "Дополнительная информация 1",
    "more_info2": "Дополнительная информация 2",
    "more_info3": "Дополнительная информация 3",
    "more_info4": "Дополнительная информация 4",
    "more_info5": "Дополнительная информация 5",
    "more_info6": "Дополнительная информация 6",
    "description": "Описание сигнала тревоги",
    "response": "Ответ системы",
    "causeaction": "Возможная причина/Действия оператора",
    "possible_cause": "Возможная причина",
    "operator_action": "Действие оператора"
}}
