{
    "alarms": [{
        "number": "10",
        "quantum": "prod",
        "alarmId": "CONTROLBOARD_NOT_RESPONDING",
        "priority": "Critical Alarm",
        "version": "2.0",
        "name": " Control board",
        "explanation": "The control board is not responding.",
        "system_response0type": "non-fatal",
        "system_response0": "The current task is paused.\n",
        "system_response1type": "non-fatal",
        "system_response1": "The rocker motion is stopped.\n",
        "system_response2type": "non-fatal",
        "system_response2": "The heater and the blower are turned off.\n",
        "system_response3type": "fatal",
        "system_response3": "The system is not responding.\n",
        "cause0": "The control board cannot communicate with the software.\n\n",
        "action0": "Restart the device.\n\n\n"
    }, {
        "number": "11",
        "quantum": "prod",
        "alarmId": "CONTROLBOARD_NOT_RECOGNIZED",
        "priority": "Critical Alarm",
        "version": "2.0",
        "name": " Control board not recognized",
        "explanation": "The software does not recognize the control board.",
        "system_response0type": "non-fatal",
        "system_response0": "The system took no action in response to this alarm.\n",
        "system_response1type": "fatal",
        "system_response1": "The system is not responding.\n",
        "cause0": "The system does not recognize the control board firmware.\n\n",
        "action0": "Contact your service representative for assistance.\n\n\n"
    }, {
        "number": "12",
        "quantum": "prod",
        "alarmId": "PUMPS_PLUS_NOT_RECOGNIZED",
        "priority": "Critical Alarm",
        "version": "2.0",
        "name": " Control board 2 not recognised",
        "explanation": "The software does not recognize control board 2.",
        "system_response0type": "non-fatal",
        "system_response0": "The system took no action in response to this alarm.\n",
        "system_response1type": "fatal",
        "system_response1": "The system is not responding.\n",
        "cause0": "The cause is unknown.\n\n",
        "action0": "Contact your service representative for assistance.\n\n\n"
    }, {
        "number": "13",
        "quantum": "prod",
        "alarmId": "NVRAM_HARDWARE_ERROR",
        "priority": "Alarm",
        "version": "2.0",
        "name": " System hardware",
        "explanation": "The hardware is not functioning.",
        "system_response0type": "non-fatal",
        "system_response0": "The system will not be able to recover data in case of a power failure.",
        "system_response1type": "fatal",
        "system_response1": "The system is not responding.\n",
        "cause0": "A system hardware malfunction occurred.\n\n",
        "action0": "Contact your service representative for assistance.\n\n\n"
    }, {
        "number": "14",
        "quantum": "prod",
        "alarmId": "NVRAM_DATA_ERROR",
        "priority": "Alarm",
        "version": "2.0",
        "name": " Invalid data",
        "explanation": "A system component that retains power recovery data has failed.",
        "system_response0type": "non-fatal",
        "system_response0": "The system will not be able to recover data in case of a power failure.",
        "system_response1type": "fatal",
        "system_response1": "The system is not responding.\n",
        "cause0": "The data has been corrupted.\n\n",
        "action0": "Contact your service representative for assistance.\n\n\n"
    }, {
        "number": "100",
        "quantum": "prod",
        "alarmId": "INCUBATOR_DOOR_OPEN",
        "priority": "Alarm",
        "version": "2.0",
        "name": " Incubator door open",
        "explanation": "The incubator door is open.",
        "system_response0type": "non-fatal",
        "system_response0": "The system took no action in response to this alarm.\n",
        "system_response1type": "fatal",
        "system_response1": "The system is not responding.\n",
        "cause0": "The incubator door has been open for longer than 10 min. \n\n",
        "action0": "Close the incubator door.\n\n\n"
    }, {
        "number": "101",
        "quantum": "prod",
        "alarmId": "INCUBATOR_TEMP_1C_OVERSP",
        "priority": "Critical Alarm",
        "version": "2.0",
        "name": " Temperature 1 °C over set point",
        "explanation": "The incubator temperature has been at least 1 °C over the temperature set point for at least 30 min.",
        "system_response0type": "non-fatal",
        "system_response0": "The heater and the blower are turned off.\n",
        "system_response1type": "fatal",
        "system_response1": "The system is not responding.\n",
        "cause0": "The ambient operating temperature is higher than specified.\n\n",
        "cause1": "There is not enough space around the device for adequate ventilation.\n\n",
        "action0": "Reduce the ambient operating temperature so it is within the specified range.\n\n\n",
        "action1": "Ensure that there is enough space around the device for adequate ventilation.\n\n\n"
    }, {
        "number": "102",
        "quantum": "prod",
        "alarmId": "INCUBATOR_TEMP_OVER40C",
        "priority": "Critical Alarm",
        "version": "2.0",
        "name": " Temp 40 °C",
        "explanation": "The incubator temperature is above 40 °C.",
        "system_response0type": "non-fatal",
        "system_response0": "The system took no action in response to this alarm.\n",
        "system_response1type": "fatal",
        "system_response1": "The system is not responding.\n",
        "cause0": "The ambient operating temperature is higher than specified.\n\n",
        "cause1": "There is not enough space around the device for adequate ventilation.\n\n",
        "action0": "Reduce the ambient operating temperature so it is within the specified range.\n\n\n",
        "action1": "Ensure that there is enough space around the device for adequate ventilation.\n\n\n"
    }, {
        "number": "103",
        "quantum": "prod",
        "alarmId": "INCUBATOR_TEMP_3C_OVERSP",
        "priority": "Critical Alarm",
        "version": "2.0",
        "name": " Temperature 3 °C over set point",
        "explanation": "The incubator temperature is at least 3 °C over the temperature set point.",
        "system_response0type": "non-fatal",
        "system_response0": "The heater and the blower are turned off.\n",
        "system_response1type": "fatal",
        "system_response1": "The system is not responding.\n",
        "cause0": "The ambient operating temperature is higher than specified.\n\n",
        "cause1": "There is not enough space around the device for adequate ventilation.\n\n",
        "action0": "Reduce the ambient operating temperature so it is within the specified range.\n\n\n",
        "action1": "Ensure that there is enough space around the device for adequate ventilation.\n\n\n"
    }, {
        "number": "104",
        "quantum": "prod",
        "alarmId": "INCUBATOR_TEMP_HALFC_OVERSP",
        "priority": "Alarm",
        "version": "2.0",
        "name": " Temperature NN °C over set point",
        "explanation": "The incubator temperature has been at least NN °C over the temperature set point for at least 30 min.",
        "system_response0type": "non-fatal",
        "system_response0": "The system took no action in response to this alarm.\n",
        "system_response1type": "fatal",
        "system_response1": "The system is not responding.\n",
        "cause0": "The ambient operating temperature is higher than specified.\n\n",
        "cause1": "There is not enough space around the device for adequate ventilation.\n\n",
        "action0": "Reduce the ambient operating temperature so it is within the specified range.\n\n\n",
        "action1": "Ensure that there is enough space around the device for adequate ventilation.\n\n\n"
    }, {
        "number": "105",
        "quantum": "prod",
        "alarmId": "INCUBATOR_SP_NOT_REACHED",
        "priority": "Alarm",
        "version": "2.0",
        "name": " Temperature not reached",
        "explanation": "The system did not reach the incubator temperature set point.",
        "system_response0type": "non-fatal",
        "system_response0": "The system took no action in response to this alarm.\n",
        "system_response1type": "fatal",
        "system_response1": "The system is not responding.\n",
        "cause0": "The ambient operating temperature is lower than specified. \n\n",
        "cause1": "The operator is adding a cold liquid to the system.\n\n",
        "action0": "Increase the ambient operating temperature so it is within the specified range.\n\n\n",
        "action1": "Enter a slower inlet rate, or warm the liquid before adding it to the system.\n\n\n"
    }, {
        "number": "106",
        "quantum": "prod",
        "alarmId": "INCUBATOR_SP_LOST",
        "priority": "Alarm",
        "version": "2.0",
        "name": " Temperature lost",
        "explanation": "The system initially reached the incubator temperature set point, but then dropped below the temperature set point.",
        "system_response0type": "non-fatal",
        "system_response0": "The system took no action in response to this alarm.\n",
        "system_response1type": "fatal",
        "system_response1": "The system is not responding.\n",
        "cause0": "The ambient operating temperature is lower than specified. \n\n",
        "cause1": "The operator is adding a cold liquid to the system.\n\n",
        "action0": "Increase the ambient operating temperature so it is within the specified range.\n\n\n",
        "action1": "Enter a slower inlet rate, or warm the liquid before adding it to the system.\n\n\n"
    }, {
        "number": "107",
        "quantum": "prod",
        "alarmId": "INCUBATOR_TEMP_NOT_RISING",
        "priority": "Alarm",
        "version": "2.0",
        "name": " Temperature not rising",
        "explanation": "The incubator temperature is not rising.",
        "system_response0type": "non-fatal",
        "system_response0": "The system took no action in response to this alarm.\n",
        "system_response1type": "fatal",
        "system_response1": "The system is not responding.\n",
        "cause0": "The ambient operating temperature is lower than specified. \n\n",
        "cause1": "The operator is adding a cold liquid to the system.\n\n",
        "action0": "Increase the ambient operating temperature so it is within the specified range.\n\n\n",
        "action1": "Enter a slower inlet rate, or warm the liquid before adding it to the system.\n\n\n"
    }, {
        "number": "108",
        "quantum": "prod",
        "alarmId": "INCUBATOR_AIR1_VS_AIR2",
        "priority": "Critical Alarm",
        "version": "2.0",
        "name": " Temperature sensor",
        "explanation": "The incubator air temperature sensors do not match within 5 °C of each other.",
        "system_response0type": "non-fatal",
        "system_response0": "The heater and the blower are turned off.\n",
        "system_response1type": "fatal",
        "system_response1": "The system is not responding.\n",
        "cause0": "An incubator temperature sensor failed.\n\n",
        "action0": "Contact your service representative for assistance.\n\n\n"
    }, {
        "number": "200",
        "quantum": "prod",
        "alarmId": "EM_TEMP_OVER60C",
        "priority": "Critical Alarm",
        "version": "2.0",
        "name": " EM temperature above 60 °C",
        "explanation": "The EM temperature is above 60 °C.",
        "system_response0type": "non-fatal",
        "system_response0": "The system took no action in response to this alarm.\n",
        "system_response1type": "fatal",
        "system_response1": "The system is not responding.\n",
        "cause0": "The ambient operating temperature is higher than specified.\n\n",
        "cause1": "There is not enough space around the device for adequate ventilation.\n\n",
        "action0": "Reduce the ambient operating temperature so it is within the specified range.\n\n\n",
        "action1": "Ensure that there is enough space around the device for adequate ventilation.\n\n\n"
    }, {
        "number": "250",
        "quantum": "prod",
        "alarmId": "ROCKER_OUT_OF_POSITION_PRIME",
        "priority": "Critical Alarm",
        "version": "2.0",
        "name": " Rocker position during prime",
        "explanation": "The rocker did not reach its expected position during prime.",
        "system_response0type": "non-fatal",
        "system_response0": "The task stopped. The system is idle.\n",
        "system_response1type": "fatal",
        "system_response1": "The system is not responding.\n",
        "cause0": "The cell expansion set is loaded incorrectly.\n\n",
        "action0": "Make sure the tubing attached to the bioreactor is not wrapped tightly around the rocker arm.\n\n\n"
    }, {
        "number": "251",
        "quantum": "prod",
        "alarmId": "ROCKER_OUT_OF_POSITION_TASK",
        "priority": "Critical Alarm",
        "version": "2.0",
        "name": " Rocker position",
        "explanation": "The rocker is out of position.",
        "system_response0type": "non-fatal",
        "system_response0": "The rocker motion is stopped.\n",
        "system_response1type": "fatal",
        "system_response1": "The system is not responding.\n",
        "cause0": "The cell expansion set is loaded incorrectly.\n\n",
        "action0": "Make sure the tubing attached to the bioreactor is not wrapped tightly around the rocker arm.\n\n\n"
    }, {
        "number": "252",
        "quantum": "prod",
        "alarmId": "ROCKER_HOMING_ERROR",
        "priority": "Critical Alarm",
        "version": "2.0",
        "name": " Rocker home position",
        "explanation": "The rocker could not find the home position.",
        "system_response0type": "non-fatal",
        "system_response0": "The rocker motion is stopped.\n",
        "system_response1type": "fatal",
        "system_response1": "The system is not responding.\n",
        "cause0": "The rocker did not go to the home position properly.\n\n",
        "action0": "Restart the device, and verify that the rocker keyhole is in the three o'clock position.\n\n\n"
    }, {
        "number": "300",
        "quantum": "prod",
        "alarmId": "TMPINLET_PRESSURE_WARNING",
        "priority": "Alarm",
        "version": "2.0",
        "name": " Inlet differential pressure",
        "explanation": "The inlet differential pressure is above 1000 mmHg.",
        "system_response0type": "non-fatal",
        "system_response0": "The system took no action in response to this alarm.\n",
        "system_response1type": "fatal",
        "system_response1": "The system is not responding.\n",
        "cause0": "A line is obstructed.\n\n",
        "cause1": "The task settings include a high inlet rate and the corresponding Outlet setting is not selected.\n\n",
        "action0": "Remove the obstruction.\n\n\n",
        "action1": "Lower the inlet rate and confirm the Outlet setting.\n\n\n"
    }, {
        "number": "301",
        "quantum": "prod",
        "alarmId": "TMPOUTLET_PRESSURE_WARNING",
        "priority": "Alarm",
        "version": "2.0",
        "name": " Outlet differential pressure",
        "explanation": "The outlet differential pressure is above 1000 mmHg.",
        "system_response0type": "non-fatal",
        "system_response0": "The system took no action in response to this alarm.\n",
        "system_response1type": "fatal",
        "system_response1": "The system is not responding.\n",
        "cause0": "A line is obstructed.\n\n",
        "cause1": "The task settings include a high inlet rate and the corresponding Outlet setting is not selected.\n\n",
        "action0": "Remove the obstruction.\n\n\n",
        "action1": "Lower the inlet rate and confirm the Outlet setting.\n\n\n"
    }, {
        "number": "302",
        "quantum": "prod",
        "alarmId": "ICINLET_PRESSURE_WARNING",
        "priority": "Critical Alarm",
        "version": "2.0",
        "name": " IC inlet pressure",
        "explanation": "The IC inlet pressure is above 1500 mmHg.",
        "system_response0type": "non-fatal",
        "system_response0": "The current task is paused.\n",
        "system_response1type": "non-fatal",
        "system_response1": "The rocker motion is stopped.\n",
        "system_response2type": "fatal",
        "system_response2": "The system is not responding.\n",
        "cause0": "A line is obstructed.\n\n",
        "cause1": "A weld on the outlet line is not fully open.\n\n",
        "cause2": "The outlet line is stuck in the incubator door.\n\n",
        "action0": "Remove the obstruction.\n\n\n",
        "action1": "Make sure all welds on the outlet line are fully open.\n\n\n",
        "action2": "Remove the outlet line from the incubator door.\n\n\n"
    }, {
        "number": "303",
        "quantum": "prod",
        "alarmId": "ICOUTLET_PRESSURE_WARNING",
        "priority": "Critical Alarm",
        "version": "2.0",
        "name": " IC outlet pressure",
        "explanation": "The IC outlet pressure is above 1500 mmHg.",
        "system_response0type": "non-fatal",
        "system_response0": "The current task is paused.\n",
        "system_response1type": "non-fatal",
        "system_response1": "The rocker motion is stopped.\n",
        "system_response2type": "fatal",
        "system_response2": "The system is not responding.\n",
        "cause0": "A line is obstructed.\n\n",
        "cause1": "A weld on the outlet line is not fully open.\n\n",
        "cause2": "The outlet line is stuck in the incubator door.\n\n",
        "action0": "Remove the obstruction.\n\n\n",
        "action1": "Make sure all welds on the outlet line are fully open.\n\n\n",
        "action2": "Remove the outlet line from the incubator door.\n\n\n"
    }, {
        "number": "304",
        "quantum": "prod",
        "alarmId": "ECINLET_PRESSURE_WARNING",
        "priority": "Critical Alarm",
        "version": "2.0",
        "name": " EC inlet pressure",
        "explanation": "The EC inlet pressure is above 1500 mmHg.",
        "system_response0type": "non-fatal",
        "system_response0": "The current task is paused.\n",
        "system_response1type": "non-fatal",
        "system_response1": "The rocker motion is stopped.\n",
        "system_response2type": "fatal",
        "system_response2": "The system is not responding.\n",
        "cause0": "A line is obstructed.\n\n",
        "cause1": "A weld on the outlet line is not fully open.\n\n",
        "cause2": "The outlet line is stuck in the incubator door.\n\n",
        "action0": "Remove the obstruction.\n\n\n",
        "action1": "Make sure all welds on the outlet line are fully open.\n\n\n",
        "action2": "Remove the outlet line from the incubator door.\n\n\n"
    }, {
        "number": "305",
        "quantum": "prod",
        "alarmId": "ECOUTLET_PRESSURE_WARNING",
        "priority": "Critical Alarm",
        "version": "2.0",
        "name": " EC outlet pressure",
        "explanation": "The EC outlet pressure is above 1500 mmHg.",
        "system_response0type": "non-fatal",
        "system_response0": "The current task is paused.\n",
        "system_response1type": "non-fatal",
        "system_response1": "The rocker motion is stopped.\n",
        "system_response2type": "fatal",
        "system_response2": "The system is not responding.\n",
        "cause0": "A line is obstructed.\n\n",
        "cause1": "A weld on the outlet line is not fully open.\n\n",
        "cause2": "The outlet line is stuck in the incubator door.\n\n",
        "action0": "Remove the obstruction.\n\n\n",
        "action1": "Make sure all welds on the outlet line are fully open.\n\n\n",
        "action2": "Remove the outlet line from the incubator door.\n\n\n"
    }, {
        "number": "306",
        "quantum": "prod",
        "alarmId": "PRESSURE_RANGE_CHECK_FAILED",
        "priority": "Critical Alarm",
        "version": "2.0",
        "name": " Pressure sensor range test",
        "explanation": "A pressure sensor failed a pressure range test.",
        "system_response0type": "non-fatal",
        "system_response0": "The task stopped. The system is idle.\n",
        "system_response1type": "fatal",
        "system_response1": "The system is not responding.\n",
        "cause0": "The cell expansion set is loaded incorrectly.\n\n",
        "action0": "Reload the cell expansion set.\n\n\n"
    }, {
        "number": "307",
        "quantum": "prod",
        "alarmId": "PRESSURE_RESOLUTION_CHECK_FAILED",
        "priority": "Critical Alarm",
        "version": "2.0",
        "name": " Pressure sensor resolution test",
        "explanation": "A pressure sensor failed a pressure resolution test.",
        "system_response0type": "non-fatal",
        "system_response0": "The task stopped. The system is idle.\n",
        "system_response1type": "fatal",
        "system_response1": "The system is not responding.\n",
        "cause0": "The cell expansion set is loaded incorrectly.\n\n",
        "action0": "Reload the cell expansion set.\n\n\n"
    }, {
        "number": "400",
        "quantum": "prod",
        "alarmId": "VALVE_CELL_INLET_POSITION_NOT_REACHED",
        "priority": "Critical Alarm",
        "version": "2.0",
        "name": " Cell valve position",
        "explanation": "The cell valve did not reach the commanded position.",
        "system_response0type": "non-fatal",
        "system_response0": "The current task is paused.\n",
        "system_response1type": "fatal",
        "system_response1": "The system is not responding.\n",
        "cause0": "The valve is obstructed.\n\n",
        "action0": "Remove the obstruction.\n\n\n"
    }, {
        "number": "401",
        "quantum": "prod",
        "alarmId": "VALVE_IC_MEDIA_POSITION_NOT_REACHED",
        "priority": "Critical Alarm",
        "version": "2.0",
        "name": " IC media valve position",
        "explanation": "The IC media valve did not reach the commanded position.",
        "system_response0type": "non-fatal",
        "system_response0": "The current task is paused.\n",
        "system_response1type": "fatal",
        "system_response1": "The system is not responding.\n",
        "cause0": "The valve is obstructed.\n\n",
        "action0": "Remove the obstruction.\n\n\n"
    }, {
        "number": "402",
        "quantum": "prod",
        "alarmId": "VALVE_REAGENT_POSITION_NOT_REACHED",
        "priority": "Critical Alarm",
        "version": "2.0",
        "name": " Reagent valve position",
        "explanation": "The reagent valve did not reach the commanded position.",
        "system_response0type": "non-fatal",
        "system_response0": "The current task is paused.\n",
        "system_response1type": "fatal",
        "system_response1": "The system is not responding.\n",
        "cause0": "The valve is obstructed.\n\n",
        "action0": "Remove the obstruction.\n\n\n"
    }, {
        "number": "403",
        "quantum": "prod",
        "alarmId": "VALVE_WASH_POSITION_NOT_REACHED",
        "priority": "Critical Alarm",
        "version": "2.0",
        "name": " Wash valve position",
        "explanation": "The wash valve did not reach the commanded position.",
        "system_response0type": "non-fatal",
        "system_response0": "The current task is paused.\n",
        "system_response1type": "fatal",
        "system_response1": "The system is not responding.\n",
        "cause0": "The valve is obstructed.\n\n",
        "action0": "Remove the obstruction.\n\n\n"
    }, {
        "number": "404",
        "quantum": "prod",
        "alarmId": "VALVE_EC_MEDIA_POSITION_NOT_REACHED",
        "priority": "Critical Alarm",
        "version": "2.0",
        "name": " EC media valve position",
        "explanation": "The EC media valve did not reach the commanded position.",
        "system_response0type": "non-fatal",
        "system_response0": "The current task is paused.\n",
        "system_response1type": "fatal",
        "system_response1": "The system is not responding.\n",
        "cause0": "The valve is obstructed.\n\n",
        "action0": "Remove the obstruction.\n\n\n"
    }, {
        "number": "405",
        "quantum": "prod",
        "alarmId": "VALVE_DISTRIBUTION_POSITION_NOT_REACHED",
        "priority": "Critical Alarm",
        "version": "2.0",
        "name": " Distribution valve position",
        "explanation": "The distribution valve did not reach the commanded position.",
        "system_response0type": "non-fatal",
        "system_response0": "The current task is paused.\n",
        "system_response1type": "fatal",
        "system_response1": "The system is not responding.\n",
        "cause0": "The valve is obstructed.\n\n",
        "action0": "Remove the obstruction.\n\n\n"
    }, {
        "number": "406",
        "quantum": "prod",
        "alarmId": "VALVE_ARC_VENT_POSITION_NOT_REACHED",
        "priority": "Critical Alarm",
        "version": "2.0",
        "name": " Air removal valve position",
        "explanation": "The air removal valve did not reach the commanded position.",
        "system_response0type": "non-fatal",
        "system_response0": "The current task is paused.\n",
        "system_response1type": "fatal",
        "system_response1": "The system is not responding.\n",
        "cause0": "The valve is obstructed.\n\n",
        "action0": "Remove the obstruction.\n\n\n"
    }, {
        "number": "407",
        "quantum": "prod",
        "alarmId": "VALVE_IC_CIRCULATION_POSITION_NOT_REACHED",
        "priority": "Critical Alarm",
        "version": "2.0",
        "name": " IC circulation valve position",
        "explanation": "The IC circulation valve did not reach the commanded position.",
        "system_response0type": "non-fatal",
        "system_response0": "The current task is paused.\n",
        "system_response1type": "fatal",
        "system_response1": "The system is not responding.\n",
        "cause0": "The valve is obstructed.\n\n",
        "action0": "Remove the obstruction.\n\n\n"
    }, {
        "number": "408",
        "quantum": "prod",
        "alarmId": "VALVE_HARVEST_POSITION_NOT_REACHED",
        "priority": "Critical Alarm",
        "version": "2.0",
        "name": " Harvest valve position",
        "explanation": "The harvest valve did not reach the commanded position.",
        "system_response0type": "non-fatal",
        "system_response0": "The current task is paused.\n",
        "system_response1type": "fatal",
        "system_response1": "The system is not responding.\n",
        "cause0": "The valve is obstructed.\n\n",
        "action0": "Remove the obstruction.\n\n\n"
    }, {
        "number": "409",
        "quantum": "prod",
        "alarmId": "VALVE_IC_WASTE_POSITION_NOT_REACHED",
        "priority": "Critical Alarm",
        "version": "2.0",
        "name": " IC waste valve position",
        "explanation": "The IC waste valve did not reach the commanded position.",
        "system_response0type": "non-fatal",
        "system_response0": "The current task is paused.\n",
        "system_response1type": "fatal",
        "system_response1": "The system is not responding.\n",
        "cause0": "The valve is obstructed.\n\n",
        "action0": "Remove the obstruction.\n\n\n"
    }, {
        "number": "410",
        "quantum": "prod",
        "alarmId": "VALVE_EC_WASTE_POSITION_NOT_REACHED",
        "priority": "Critical Alarm",
        "version": "2.0",
        "name": " EC waste valve position",
        "explanation": "The EC waste valve did not reach the commanded position.",
        "system_response0type": "non-fatal",
        "system_response0": "The current task is paused.\n",
        "system_response1type": "fatal",
        "system_response1": "The system is not responding.\n",
        "cause0": "The valve is obstructed.\n\n",
        "action0": "Remove the obstruction.\n\n\n"
    }, {
        "number": "411",
        "quantum": "prod",
        "alarmId": "VALVE_CELL_INLET_LEAVES_POSITION",
        "priority": "Critical Alarm",
        "version": "2.0",
        "name": " Cell valve moved unexpectedly",
        "explanation": "The cell valve left the commanded position.",
        "system_response0type": "non-fatal",
        "system_response0": "The current task is paused.\n",
        "system_response1type": "fatal",
        "system_response1": "The system is not responding.\n",
        "cause0": "A system malfunction occurred.\n\n",
        "action0": "Restart the device.\n\n\n"
    }, {
        "number": "412",
        "quantum": "prod",
        "alarmId": "VALVE_IC_MEDIA_LEAVES_POSITION",
        "priority": "Critical Alarm",
        "version": "2.0",
        "name": " IC media valve moved unexpectedly",
        "explanation": "The IC media valve left the commanded position.",
        "system_response0type": "non-fatal",
        "system_response0": "The current task is paused.\n",
        "system_response1type": "fatal",
        "system_response1": "The system is not responding.\n",
        "cause0": "A system malfunction occurred.\n\n",
        "action0": "Restart the device.\n\n\n"
    }, {
        "number": "413",
        "quantum": "prod",
        "alarmId": "VALVE_REAGENT_LEAVES_POSITION",
        "priority": "Critical Alarm",
        "version": "2.0",
        "name": " Reagent valve moved unexpectedly",
        "explanation": "The reagent valve left the commanded position.",
        "system_response0type": "non-fatal",
        "system_response0": "The current task is paused.\n",
        "system_response1type": "fatal",
        "system_response1": "The system is not responding.\n",
        "cause0": "A system malfunction occurred.\n\n",
        "action0": "Restart the device.\n\n\n"
    }, {
        "number": "414",
        "quantum": "prod",
        "alarmId": "VALVE_WASH_LEAVES_POSITION",
        "priority": "Critical Alarm",
        "version": "2.0",
        "name": " Wash valve moved unexpectedly",
        "explanation": "The wash valve left the commanded position.",
        "system_response0type": "non-fatal",
        "system_response0": "The current task is paused.\n",
        "system_response1type": "fatal",
        "system_response1": "The system is not responding.\n",
        "cause0": "A system malfunction occurred.\n\n",
        "action0": "Restart the device.\n\n\n"
    }, {
        "number": "415",
        "quantum": "prod",
        "alarmId": "VALVE_EC_MEDIA_LEAVES_POSITION",
        "priority": "Critical Alarm",
        "version": "2.0",
        "name": " EC media valve moved unexpectedly",
        "explanation": "The EC media valve left the commanded position.",
        "system_response0type": "non-fatal",
        "system_response0": "The current task is paused.\n",
        "system_response1type": "fatal",
        "system_response1": "The system is not responding.\n",
        "cause0": "A system malfunction occurred.\n\n",
        "action0": "Restart the device.\n\n\n"
    }, {
        "number": "416",
        "quantum": "prod",
        "alarmId": "VALVE_DISTRIBUTION_LEAVES_POSITION",
        "priority": "Critical Alarm",
        "version": "2.0",
        "name": " Distribution valve moved unexpectedly",
        "explanation": "The distribution valve left the commanded position.",
        "system_response0type": "non-fatal",
        "system_response0": "The current task is paused.\n",
        "system_response1type": "fatal",
        "system_response1": "The system is not responding.\n",
        "cause0": "A system malfunction occurred.\n\n",
        "action0": "Restart the device.\n\n\n"
    }, {
        "number": "417",
        "quantum": "prod",
        "alarmId": "VALVE_ARC_VENT_LEAVES_POSITION",
        "priority": "Critical Alarm",
        "version": "2.0",
        "name": " Air removal valve moved unexpectedly",
        "explanation": "The air removal valve left the commanded position.",
        "system_response0type": "non-fatal",
        "system_response0": "The current task is paused.\n",
        "system_response1type": "fatal",
        "system_response1": "The system is not responding.\n",
        "cause0": "A system malfunction occurred.\n\n",
        "action0": "Restart the device.\n\n\n"
    }, {
        "number": "418",
        "quantum": "prod",
        "alarmId": "VALVE_IC_CIRCULATION_LEAVES_POSITION",
        "priority": "Critical Alarm",
        "version": "2.0",
        "name": " IC circulation valve moved unexpectedly",
        "explanation": "The IC circulation valve left the commanded position.",
        "system_response0type": "non-fatal",
        "system_response0": "The current task is paused.\n",
        "system_response1type": "fatal",
        "system_response1": "The system is not responding.\n",
        "cause0": "A system malfunction occurred.\n\n",
        "action0": "Restart the device.\n\n\n"
    }, {
        "number": "419",
        "quantum": "prod",
        "alarmId": "VALVE_HARVEST_LEAVES_POSITION",
        "priority": "Critical Alarm",
        "version": "2.0",
        "name": " Harvest valve moved unexpectedly",
        "explanation": "The harvest valve left the commanded position.",
        "system_response0type": "non-fatal",
        "system_response0": "The current task is paused.\n",
        "system_response1type": "fatal",
        "system_response1": "The system is not responding.\n",
        "cause0": "A system malfunction occurred.\n\n",
        "action0": "Restart the device.\n\n\n"
    }, {
        "number": "420",
        "quantum": "prod",
        "alarmId": "VALVE_IC_WASTE_LEAVES_POSITION",
        "priority": "Critical Alarm",
        "version": "2.0",
        "name": " IC waste valve moved unexpectedly",
        "explanation": "The IC waste valve left the commanded position.",
        "system_response0type": "non-fatal",
        "system_response0": "The current task is paused.\n",
        "system_response1type": "fatal",
        "system_response1": "The system is not responding.\n",
        "cause0": "A system malfunction occurred.\n\n",
        "action0": "Restart the device.\n\n\n"
    }, {
        "number": "421",
        "quantum": "prod",
        "alarmId": "VALVE_EC_WASTE_LEAVES_POSITION",
        "priority": "Critical Alarm",
        "version": "2.0",
        "name": " EC waste valve moved unexpectedly",
        "explanation": "The EC waste valve left the commanded position.",
        "system_response0type": "non-fatal",
        "system_response0": "The current task is paused.\n",
        "system_response1type": "fatal",
        "system_response1": "The system is not responding.\n",
        "cause0": "A system malfunction occurred.\n\n",
        "action0": "Restart the device.\n\n\n"
    }, {
        "number": "500",
        "quantum": "prod",
        "alarmId": "FLUIDICS_IC_INLET_PUMP_FAILED",
        "priority": "Critical Alarm",
        "version": "2.0",
        "name": " IC inlet pump",
        "explanation": "The IC inlet pump failed.",
        "system_response0type": "non-fatal",
        "system_response0": "The current task is paused.\n",
        "system_response1type": "fatal",
        "system_response1": "The system is not responding.\n",
        "cause0": "The cause is unknown.\n\n",
        "action0": "Contact your service representative for assistance.\n\n\n"
    }, {
        "number": "501",
        "quantum": "prod",
        "alarmId": "FLUIDICS_EC_INLET_PUMP_FAILED",
        "priority": "Critical Alarm",
        "version": "2.0",
        "name": " EC inlet pump",
        "explanation": "The EC inlet pump failed.",
        "system_response0type": "non-fatal",
        "system_response0": "The current task is paused.\n",
        "system_response1type": "fatal",
        "system_response1": "The system is not responding.\n",
        "cause0": "The cause is unknown.\n\n",
        "action0": "Contact your service representative for assistance.\n\n\n"
    }, {
        "number": "502",
        "quantum": "prod",
        "alarmId": "FLUIDICS_IC_CIRCULATION_PUMP_FAILED",
        "priority": "Critical Alarm",
        "version": "2.0",
        "name": " IC circulation pump",
        "explanation": "The IC circulation pump failed.",
        "system_response0type": "non-fatal",
        "system_response0": "The current task is paused.\n",
        "system_response1type": "fatal",
        "system_response1": "The system is not responding.\n",
        "cause0": "The cause is unknown.\n\n",
        "action0": "Contact your service representative for assistance.\n\n\n"
    }, {
        "number": "508",
        "quantum": "prod",
        "alarmId": "FLUIDICS_EC_CIRCULATION_PUMP_STARTUP_FAILED",
        "priority": "Critical Alarm",
        "version": "2.0",
        "name": " EC circulation pump startup",
        "explanation": "The EC circulation pump failed to start.",
        "system_response0type": "non-fatal",
        "system_response0": "The current task is paused.\n",
        "system_response1type": "fatal",
        "system_response1": "The system is not responding.\n",
        "cause0": "The cause is unknown.\n\n",
        "action0": "Contact your service representative for assistance.\n\n\n"
    }, {
        "number": "505",
        "quantum": "prod",
        "alarmId": "FLUIDICS_IC_INLET_PUMP_STARTUP_FAILED",
        "priority": "Critical Alarm",
        "version": "2.0",
        "name": " IC inlet pump startup",
        "explanation": "The IC inlet pump failed to start.",
        "system_response0type": "non-fatal",
        "system_response0": "The current task is paused.\n",
        "system_response1type": "fatal",
        "system_response1": "The system is not responding.\n",
        "cause0": "The cause is unknown.\n\n",
        "action0": "Contact your service representative for assistance.\n\n\n"
    }, {
        "number": "506",
        "quantum": "prod",
        "alarmId": "FLUIDICS_EC_INLET_PUMP_STARTUP_FAILED",
        "priority": "Critical Alarm",
        "version": "2.0",
        "name": " EC inlet pump startup",
        "explanation": "The EC inlet pump failed to start.",
        "system_response0type": "non-fatal",
        "system_response0": "The current task is paused.\n",
        "system_response1type": "fatal",
        "system_response1": "The system is not responding.\n",
        "cause0": "The cause is unknown.\n\n",
        "action0": "Contact your service representative for assistance.\n\n\n"
    }, {
        "number": "507",
        "quantum": "prod",
        "alarmId": "FLUIDICS_IC_CIRCULATION_PUMP_STARTUP_FAILED",
        "priority": "Critical Alarm",
        "version": "2.0",
        "name": " IC circulation pump startup",
        "explanation": "The IC circulation pump failed to start.",
        "system_response0type": "non-fatal",
        "system_response0": "The current task is paused.\n",
        "system_response1type": "fatal",
        "system_response1": "The system is not responding.\n",
        "cause0": "The cause is unknown.\n\n",
        "action0": "Contact your service representative for assistance.\n\n\n"
    }, {
        "number": "503",
        "quantum": "prod",
        "alarmId": "FLUIDICS_EC_CIRCULATION_PUMP_FAILED",
        "priority": "Critical Alarm",
        "version": "2.0",
        "name": " EC circulation pump",
        "explanation": "The EC circulation pump failed.",
        "system_response0type": "non-fatal",
        "system_response0": "The current task is paused.\n",
        "system_response1type": "fatal",
        "system_response1": "The system is not responding.\n",
        "cause0": "The cause is unknown.\n\n",
        "action0": "Contact your service representative for assistance.\n\n\n"
    }, {
        "number": "600",
        "quantum": "prod",
        "alarmId": "EC_FLUID_INSUFFICIENT",
        "priority": "Critical Alarm",
        "version": "2.0",
        "name": " EC inlet fluid not detected",
        "explanation": "The EC fluid detector did not detect fluid at the EC inlet.",
        "system_response0type": "non-fatal",
        "system_response0": "The system took no action in response to this alarm.\n",
        "system_response1type": "fatal",
        "system_response1": "The system is not responding.\n",
        "cause0": "The EC inlet source is empty.\n\n",
        "cause1": "The EC inlet line is not threaded through the EC fluid detector correctly.\n\n",
        "action0": "Replace the EC inlet source.\n\n\n",
        "action1": "Re-thread the EC inlet line through the EC fluid detector.\n\n\n"
    }, {
        "number": "602",
        "quantum": "prod",
        "alarmId": "ARC_FILL_OPERATION_FAILED",
        "priority": "Critical Alarm",
        "version": "2.0",
        "name": " ARC fill",
        "explanation": "The high level sensor did not sense fluid during the fill operation.",
        "system_response0type": "non-fatal",
        "system_response0": "The current task is paused.\n",
        "system_response1type": "fatal",
        "system_response1": "The system is not responding.\n",
        "cause0": "The IC inlet source is empty. \n\n",
        "cause1": "An inlet bag contained a significant volume of air, which entered the system.\n\n",
        "cause2": "The in-line filter (200 micron) is not primed properly.\n\n",
        "action0": "Replace the IC inlet source.\n\n\n",
        "action1": "Remove any inlet bags that contain significant amounts of air.\n\n\n",
        "action2": "Prime the in-line filter (200 micron) by squeezing it until the bottom of the filter contains fluid.\n\n\n"
    }, {
        "number": "606",
        "quantum": "prod",
        "alarmId": "ARC_DRAIN_OPERATION_FAILED",
        "priority": "Critical Alarm",
        "version": "2.0",
        "name": " ARC drain",
        "explanation": "The system could not complete the drain operation.",
        "system_response0type": "non-fatal",
        "system_response0": "The current task is paused.\n",
        "system_response1type": "fatal",
        "system_response1": "The system is not responding.\n",
        "cause0": "A line is obstructed.\n\n",
        "action0": "Remove the obstruction.\n\n\n"
    }, {
        "number": "603",
        "quantum": "prod",
        "alarmId": "FLUID_SEEN_START_PRIME",
        "priority": "Critical Alarm",
        "version": "2.0",
        "name": " Fluid prematurely detected",
        "explanation": "The system detected fluid prematurely at the start of prime.",
        "system_response0type": "non-fatal",
        "system_response0": "The task stopped. The system is idle.\n",
        "system_response1type": "fatal",
        "system_response1": "The system is not responding.\n",
        "cause0": "The cell expansion set already contains fluid.\n\n",
        "action0": "Remove the cell expansion set, and then load a dry cell expansion set and retry prime.\n\n\n"
    }, {
        "number": "604",
        "quantum": "prod",
        "alarmId": "LEAK_DETECTED",
        "priority": "Critical Alarm",
        "version": "2.0",
        "name": " Leak detected",
        "explanation": "The leak detector detected fluid in the spill tray.",
        "system_response0type": "non-fatal",
        "system_response0": "All of the valves are closed.\n",
        "system_response1type": "non-fatal",
        "system_response1": "The current task is paused.\n",
        "system_response2type": "non-fatal",
        "system_response2": "The rocker motion is stopped.\n",
        "system_response3type": "fatal",
        "system_response3": "The system is not responding.\n",
        "cause0": "There is fluid in the spill tray. \n\n",
        "cause1": "There is an object or debris in the spill tray.\n\n",
        "action0": "Clean the fluid from the spill tray. \n\n\n",
        "action1": "Remove all objects and debris from the spill tray.\n\n\n"
    }, {
        "number": "605",
        "quantum": "prod",
        "alarmId": "ARC_UNEXPECTED_EMPTY",
        "priority": "Critical Alarm",
        "version": "2.0",
        "name": " Air detected",
        "explanation": "The low level sensor sensed air in the air removal chamber.",
        "system_response0type": "non-fatal",
        "system_response0": "The task stopped. The system is idle.\n",
        "system_response1type": "fatal",
        "system_response1": "The system is not responding.\n",
        "cause0": "The IC inlet source is empty. \n\n",
        "action0": "Replace the IC inlet source.\n\n\n"
    }, {
        "number": "700",
        "quantum": "prod",
        "alarmId": "HARDWARE_COMM_ERROR",
        "priority": "Critical Alarm",
        "version": "2.0",
        "name": " System hardware",
        "explanation": "The system hardware is not responding.",
        "system_response0type": "non-fatal",
        "system_response0": "The system took no action in response to this alarm.\n",
        "system_response1type": "fatal",
        "system_response1": "The system is not responding.\n",
        "cause0": "A system hardware malfunction occurred.\n\n",
        "action0": "Contact your service representative for assistance.\n\n\n"
    }, {
        "number": "801",
        "quantum": "prod",
        "alarmId": "CONFIG_FILE_INVALID",
        "priority": "Alarm",
        "version": "2.0",
        "name": " Invalid configuration file",
        "explanation": "The software found an invalid configuration file. ",
        "system_response0type": "non-fatal",
        "system_response0": "The software repaired the configuration file.\n",
        "system_response1type": "fatal",
        "system_response1": "The system is not responding.\n",
        "cause0": "The cause is unknown.\n\n",
        "action0": "If the problem persists, contact your service representative for assistance.\n\n\n"
    }, {
        "number": "802",
        "quantum": "prod",
        "alarmId": "CONFIG_FILE_MERGE",
        "priority": "Alarm",
        "version": "2.0",
        "name": " Configuration file",
        "explanation": "The software found an error in a configuration file.",
        "system_response0type": "non-fatal",
        "system_response0": "The software repaired the configuration file.\n",
        "system_response1type": "fatal",
        "system_response1": "The system is not responding.\n",
        "cause0": "The cause is unknown.\n\n",
        "action0": "If the problem persists, contact your service representative for assistance.\n\n\n"
    }, {
        "number": "803",
        "quantum": "prod",
        "alarmId": "CONFIG_USER_AUTH_DISABLED",
        "priority": "Alarm",
        "version": "2.0",
        "name": " Configuration file",
        "explanation": "The software found an error in the configuration file for user authentication.",
        "system_response0type": "fatal",
        "system_response0": "The system is not responding.\n",
        "cause0": "The cause is unknown.\n\n",
        "action0": "If the problem persists, contact your service representative for assistance.\n\n\n"
    }, {
        "number": "900",
        "quantum": "prod",
        "alarmId": "SOFTCRC_CHECK_FAILED",
        "priority": "Critical Alarm",
        "version": "2.0",
        "name": " Software check",
        "explanation": "The software did not pass its initial check.",
        "system_response0type": "non-fatal",
        "system_response0": "The system took no action in response to this alarm.\n",
        "system_response1type": "fatal",
        "system_response1": "The system is not responding.\n",
        "cause0": "A software malfunction occurred.\n\n",
        "action0": "Contact your service representative for assistance.\n\n\n"
    }, {
        "number": "1000",
        "quantum": "prod",
        "alarmId": "TASK_INTERRUPTED_BY_POWER_FAIL",
        "priority": "Warning",
        "version": "2.0",
        "name": " Task interrupted",
        "explanation": "The following task was in progress,\nbut it was interrupted by a power failure: {name} \nPower was lost: {date1} {time1} \nPower was restored: {date2} {time2} \nPower was lost for NN hr, NN min, and NN sec.",
        "system_response0type": "fatal",
        "system_response0": "The system is not responding.\n",
        "cause0": "Power to the system was interrupted.\n\n",
        "action0": "Restart the task.\n\n\n"
    }, {
        "number": "1001",
        "quantum": "prod",
        "alarmId": "TASK_RESUMED_AFTER_POWER_FAIL",
        "priority": "Alert",
        "version": "2.0",
        "name": " Task interrupted",
        "explanation": "The following task was in progress,\nbut it was interrupted by a power failure: {name} \nPower was lost: {date1} {time1} \nPower was restored: {date2} {time2} \nPower was lost for NN hr, NN min, and NN sec.",
        "system_response0type": "fatal",
        "system_response0": "The system is not responding.\n",
        "cause0": "Power to the system was interrupted.\n\n",
        "action0": "No action recommended.\n\n\n"
    }, {
        "number": "1002",
        "quantum": "prod",
        "alarmId": "TASK_PAUSED_AFTER_POWER_FAIL",
        "priority": "Alarm",
        "version": "2.0",
        "name": " Task interrupted",
        "explanation": "The following task was in progress,\nbut it was interrupted by a power failure: {name} \nPower was lost: {date1} {time1} \nPower was restored: {date2} {time2} \nPower was lost for NN hr, NN min, and NN sec.",
        "system_response0type": "fatal",
        "system_response0": "The system is not responding.\n",
        "cause0": "Power to the system was interrupted with the door open.\n\n",
        "action0": "Resume the task.\n\n\n"
    }, {
        "number": "1100",
        "quantum": "prod",
        "alarmId": "REPORTS_SEND_TO_SERVER_FAIL",
        "priority": "Alarm",
        "version": "2.0",
        "name": " Report not sent",
        "explanation": "NN of NN reports could not be sent to the server that the Quantum system is configured to send reports to.",
        "system_response0type": "non-fatal",
        "system_response0": "The system took no action in response to this alarm.\n",
        "system_response1type": "fatal",
        "system_response1": "The system is not responding.\n",
        "cause0": "A network cable is not connected.\n\n",
        "cause1": "The network settings for the Quantum system are incorrect.\n\n",
        "cause2": "The FTP server is unreachable.\n\n",
        "action0": "Check the network cables.\n\n\n",
        "action1": "Check the network settings for the Quantum system.\n\n\n",
        "action2": "Contact your IT department for assistance.\n\n\n"
    }, {
        "number": "1103",
        "quantum": "prod",
        "alarmId": "REPORT_FILE_INVALID",
        "priority": "Alert",
        "version": "2.0",
        "name": " Invalid report file",
        "explanation": "{name}  file is missing or corrupt.",
        "system_response0type": "non-fatal",
        "system_response0": "The system took no action in response to this alarm.\n",
        "system_response1type": "fatal",
        "system_response1": "The system is not responding.\n",
        "cause0": "The cause is unknown.\n\n",
        "action0": "If the problem persists, contact your service representative for assistance.\n\n\n"
    }, {
        "number": "1105",
        "quantum": "prod",
        "alarmId": "CONFIGURATION_HISTORY_FILE_INVALID",
        "priority": "Alert",
        "version": "2.0",
        "name": " Invalid configuration history file",
        "explanation": "The file that contains the history for the system configuration is missing or corrupt.",
        "system_response0type": "fatal",
        "system_response0": "The system is not responding.\n",
        "cause0": "The cause is unknown.\n\n",
        "action0": "If the problem persists, contact your service representative for assistance.\n\n\n"
    }, {
        "number": "1104",
        "quantum": "prod",
        "alarmId": "REPORTS_LIST_INVALID",
        "priority": "Alert",
        "version": "2.0",
        "name": " Invalid run report list",
        "explanation": "The list of run reports is missing or corrupt.",
        "system_response0type": "fatal",
        "system_response0": "The system is not responding.\n",
        "cause0": "The cause is unknown.\n\n",
        "action0": "If the problem persists, contact your service representative for assistance.\n\n\n"
    }, {
        "number": "1102",
        "quantum": "prod",
        "alarmId": "RUN_REPORT_EVENTS_LOST",
        "priority": "Alert",
        "version": "2.0",
        "name": " Run report events lost",
        "explanation": "NN events were lost from run report: {name} ",
        "system_response0type": "non-fatal",
        "system_response0": "The system took no action in response to this alarm.\n",
        "system_response1type": "fatal",
        "system_response1": "The system is not responding.\n",
        "cause0": "The cause is unknown.\n\n",
        "action0": "If the problem persists, contact your service representative for assistance.\n\n\n"
    }, {
        "number": "1201",
        "quantum": "prod",
        "alarmId": "REMOTE_ALARM_SERVER_CONNECT_LOST",
        "priority": "Alarm",
        "version": "2.0",
        "name": " Remote alarm sever communication",
        "explanation": "The system cannot communicate with the remote alarm server.",
        "system_response0type": "non-fatal",
        "system_response0": "The system took no action in response to this alarm.\n",
        "system_response1type": "fatal",
        "system_response1": "The system is not responding.\n",
        "cause0": "A network cable is not connected.\n\n",
        "cause1": "The network settings for the Quantum system are incorrect.\n\n",
        "cause2": "The remote alarm server is unreachable.\n\n",
        "action0": "Check the network cables.\n\n\n",
        "action1": "Check the network settings for the Quantum system.\n\n\n",
        "action2": "Contact your IT department for assistance.\n\n\n"
    }]
}