{"strings": {
    "cause": "Causa possível",
    "action": "Etapas da ação",
    "start": "Testes de inicialização da máquina",
    "not_conn": "Paciente não-conectado",
    "conn": "Paciente conectado",
    "disconn": "Paciente desconectado",
    "instructions": "Instruções na tela",
    "information": "Informações do alarme",
    "identification": "Identificação do alarme",
    "layer": "Camada",
    "system": "Sistema",
    "protocol": "Protocolo",
    "alarm_name": "Nome do alarme",
    "alarm_expl": "Explicação do alarme",
    "state": "Estado do sistema",
        "message_number": "Número de mensagem",
    "message_type": "Tipo de mensagem",
    "version": "Versão",    
    "occurs": "Ocorre durante",
    "more_info1": "Mais informações 1",
    "more_info2": "Mais informações 2",
    "more_info3": "Mais informações 3",
    "more_info4": "Mais informações 4",
    "more_info5": "Mais informações 5",
    "more_info6": "Mais informações 6",
                "description": "Alarm Description (En placeholder)",
    "response": "System Response (En placeholder)",
    "causeaction": "Possible Cause/Operator Action (En placeholder)",
    "possible_cause": "Possible Cause (En placeholder)",
    "operator_action": "Operator Action (En placeholder)"
}}
